2021-05-08T18:33:57.666+0700	INFO	instance/beat.go:660	Home path: [/Users/21059308/Documents/repository/elk-monitoring/metricbeat] Config path: [/Users/21059308/Documents/repository/elk-monitoring/metricbeat] Data path: [/Users/21059308/Documents/repository/elk-monitoring/metricbeat/data] Logs path: [/Users/21059308/Documents/repository/elk-monitoring/metricbeat/logs]
2021-05-08T18:33:57.677+0700	INFO	instance/beat.go:668	Beat ID: e66d8d81-9478-485d-975a-67ce207617cb
2021-05-08T18:33:57.732+0700	INFO	[beat]	instance/beat.go:996	Beat info	{"system_info": {"beat": {"path": {"config": "/Users/21059308/Documents/repository/elk-monitoring/metricbeat", "data": "/Users/21059308/Documents/repository/elk-monitoring/metricbeat/data", "home": "/Users/21059308/Documents/repository/elk-monitoring/metricbeat", "logs": "/Users/21059308/Documents/repository/elk-monitoring/metricbeat/logs"}, "type": "metricbeat", "uuid": "e66d8d81-9478-485d-975a-67ce207617cb"}}}
2021-05-08T18:33:57.733+0700	INFO	[beat]	instance/beat.go:1005	Build info	{"system_info": {"build": {"commit": "651a2ad1225f3d4420a22eba847de385b71f711d", "libbeat": "7.12.1", "time": "2021-04-20T21:10:26.000Z", "version": "7.12.1"}}}
2021-05-08T18:33:57.733+0700	INFO	[beat]	instance/beat.go:1008	Go runtime info	{"system_info": {"go": {"os":"darwin","arch":"amd64","max_procs":8,"version":"go1.15.9"}}}
2021-05-08T18:33:57.734+0700	INFO	[beat]	instance/beat.go:1012	Host info	{"system_info": {"host": {"architecture":"x86_64","boot_time":"2021-05-08T14:44:13.147382+07:00","name":"MACAZMP3XYCHIP.local","ip":["127.0.0.1/8","::1/128","fe80::1/64","fe80::aede:48ff:fe00:1122/64","fe80::89f:2838:b479:44b1/64","192.168.31.195/24","fe80::4cfa:1dff:fea1:15b5/64","fe80::4cfa:1dff:fea1:15b5/64","fe80::6348:a38e:c064:6aba/64","fe80::82bd:15:eabb:8ad1/64"],"kernel_version":"19.6.0","mac":["ac:de:48:00:11:22","2a:f8:bc:6a:ba:30","08:f8:bc:6a:ba:30","82:87:27:00:50:01","82:87:27:00:50:00","82:87:27:00:50:01","0a:f8:bc:6a:ba:30","4e:fa:1d:a1:15:b5","4e:fa:1d:a1:15:b5"],"os":{"type":"macos","family":"darwin","platform":"darwin","name":"Mac OS X","version":"10.15.7","major":10,"minor":15,"patch":7,"build":"19H15"},"timezone":"WIB","timezone_offset_sec":25200,"id":"13D8B088-F438-56B7-9182-83C4B604503E"}}}
2021-05-08T18:33:57.734+0700	INFO	[beat]	instance/beat.go:1041	Process info	{"system_info": {"process": {"cwd": "/Users/21059308/Documents/repository/elk-monitoring/metricbeat", "exe": "./metricbeat", "name": "metricbeat", "pid": 13360, "ppid": 9221, "start_time": "2021-05-08T18:33:57.112+0700"}}}
2021-05-08T18:33:57.734+0700	INFO	instance/beat.go:304	Setup Beat: metricbeat; Version: 7.12.1
2021-05-08T18:33:57.735+0700	INFO	[index-management]	idxmgmt/std.go:184	Set output.elasticsearch.index to 'metricbeat-7.12.1' as ILM is enabled.
2021-05-08T18:33:57.737+0700	INFO	eslegclient/connection.go:99	elasticsearch url: http://localhost:9200
2021-05-08T18:33:57.740+0700	INFO	[publisher]	pipeline/module.go:113	Beat name: MACAZMP3XYCHIP.local
2021-05-08T18:33:57.779+0700	INFO	eslegclient/connection.go:99	elasticsearch url: http://localhost:9200
2021-05-08T18:33:57.787+0700	INFO	[esclientleg]	eslegclient/connection.go:314	Attempting to connect to Elasticsearch version 7.12.0
2021-05-08T18:33:57.804+0700	INFO	[index-management]	idxmgmt/std.go:261	Auto ILM enable success.
2021-05-08T18:33:57.807+0700	INFO	[index-management.ilm]	ilm/std.go:139	do not generate ilm policy: exists=true, overwrite=false
2021-05-08T18:33:57.807+0700	INFO	[index-management]	idxmgmt/std.go:274	ILM policy successfully loaded.
2021-05-08T18:33:57.807+0700	INFO	[index-management]	idxmgmt/std.go:407	Set setup.template.name to '{metricbeat-7.12.1 {now/d}-000001}' as ILM is enabled.
2021-05-08T18:33:57.807+0700	INFO	[index-management]	idxmgmt/std.go:412	Set setup.template.pattern to 'metricbeat-7.12.1-*' as ILM is enabled.
2021-05-08T18:33:57.807+0700	INFO	[index-management]	idxmgmt/std.go:446	Set settings.index.lifecycle.rollover_alias in template to {metricbeat-7.12.1 {now/d}-000001} as ILM is enabled.
2021-05-08T18:33:57.807+0700	INFO	[index-management]	idxmgmt/std.go:450	Set settings.index.lifecycle.name in template to {metricbeat {"policy":{"phases":{"hot":{"actions":{"rollover":{"max_age":"30d","max_size":"50gb"}}}}}}} as ILM is enabled.
2021-05-08T18:33:57.810+0700	INFO	template/load.go:183	Existing template will be overwritten, as overwrite is enabled.
2021-05-08T18:33:58.007+0700	INFO	template/load.go:117	Try loading template metricbeat-7.12.1 to Elasticsearch
2021-05-08T18:33:58.199+0700	INFO	template/load.go:109	template with name 'metricbeat-7.12.1' loaded.
2021-05-08T18:33:58.199+0700	INFO	[index-management]	idxmgmt/std.go:298	Loaded index template.
2021-05-08T18:33:58.203+0700	INFO	[index-management]	idxmgmt/std.go:309	Write alias successfully generated.
2021-05-08T18:33:58.203+0700	INFO	kibana/client.go:119	Kibana url: http://localhost:5601
2021-05-08T18:33:58.492+0700	INFO	kibana/client.go:119	Kibana url: http://localhost:5601
2021-05-08T18:34:00.680+0700	INFO	[add_cloud_metadata]	add_cloud_metadata/add_cloud_metadata.go:101	add_cloud_metadata: hosting provider type not detected.
2021-05-08T18:35:40.606+0700	INFO	instance/beat.go:830	Kibana dashboards successfully loaded.
