{
    "objects": [
        {
            "attributes": {
                "description": "Kubernetes Proxy metrics",
                "hits": 0,
                "kibanaSavedObjectMeta": {
                    "searchSourceJSON": "{\"filter\": [{\"$state\": {\"store\": \"appState\"}, \"query\": {\"match\": {\"event.dataset\": {\"type\": \"phrase\", \"query\": \"kubernetes.proxy\"}}}, \"meta\": {\"alias\": null, \"type\": \"phrase\", \"params\": {\"query\": \"kubernetes.proxy\"}, \"disabled\": false, \"value\": \"kubernetes.proxy\", \"negate\": false, \"key\": \"event.dataset\", \"indexRefName\": \"kibanaSavedObjectMeta.searchSourceJSON.filter[0].meta.index\"}}], \"query\": {\"language\": \"kuery\", \"query\": \"\"}}"
                },
                "optionsJSON": "{\"useMargins\": true, \"hidePanelTitles\": false}",
                "panelsJSON": "[{\"panelRefName\": \"panel_0\", \"panelIndex\": \"1\", \"embeddableConfig\": {}, \"gridData\": {\"w\": 23, \"y\": 12, \"x\": 0, \"i\": \"1\", \"h\": 12}, \"version\": \"7.1.1\"}, {\"panelRefName\": \"panel_1\", \"panelIndex\": \"2\", \"embeddableConfig\": {}, \"gridData\": {\"w\": 25, \"y\": 12, \"x\": 23, \"i\": \"2\", \"h\": 12}, \"version\": \"7.1.1\"}, {\"panelRefName\": \"panel_2\", \"panelIndex\": \"3\", \"embeddableConfig\": {}, \"gridData\": {\"w\": 9, \"y\": 0, \"x\": 12, \"i\": \"3\", \"h\": 12}, \"version\": \"7.1.1\"}, {\"panelRefName\": \"panel_3\", \"panelIndex\": \"4\", \"embeddableConfig\": {}, \"gridData\": {\"w\": 27, \"y\": 0, \"x\": 21, \"i\": \"4\", \"h\": 12}, \"version\": \"7.1.1\"}, {\"panelRefName\": \"panel_4\", \"panelIndex\": \"5\", \"embeddableConfig\": {}, \"gridData\": {\"w\": 48, \"y\": 24, \"x\": 0, \"i\": \"5\", \"h\": 13}, \"version\": \"7.1.1\"}, {\"panelRefName\": \"panel_5\", \"panelIndex\": \"6\", \"embeddableConfig\": {}, \"gridData\": {\"w\": 48, \"y\": 37, \"x\": 0, \"i\": \"6\", \"h\": 10}, \"version\": \"7.1.1\"}, {\"panelRefName\": \"panel_6\", \"panelIndex\": \"7\", \"embeddableConfig\": {}, \"gridData\": {\"w\": 12, \"y\": 0, \"x\": 0, \"i\": \"7\", \"h\": 12}, \"version\": \"7.1.1\"}]",
                "timeRestore": false,
                "title": "[Metricbeat Kubernetes] Proxy",
                "version": 1
            },
            "id": "5e649d60-9901-11e9-ba57-b7ab4e2d4b58",
            "migrationVersion": {
                "dashboard": "7.0.0"
            },
            "references": [
                {
                    "id": "metricbeat-*",
                    "name": "kibanaSavedObjectMeta.searchSourceJSON.filter[0].meta.index",
                    "type": "index-pattern"
                },
                {
                    "id": "e0ddd3e0-98fe-11e9-ba57-b7ab4e2d4b58",
                    "name": "panel_0",
                    "type": "visualization"
                },
                {
                    "id": "cac89fb0-9906-11e9-ba57-b7ab4e2d4b58",
                    "name": "panel_1",
                    "type": "visualization"
                },
                {
                    "id": "09b404f0-99af-11e9-ba57-b7ab4e2d4b58",
                    "name": "panel_2",
                    "type": "visualization"
                },
                {
                    "id": "8c6c2690-9bd8-11e9-9dc8-fd27291d427f",
                    "name": "panel_3",
                    "type": "visualization"
                },
                {
                    "id": "b8a24790-9bf0-11e9-9dc8-fd27291d427f",
                    "name": "panel_4",
                    "type": "visualization"
                },
                {
                    "id": "ba7bf750-9bf5-11e9-9dc8-fd27291d427f",
                    "name": "panel_5",
                    "type": "visualization"
                },
                {
                    "id": "bcb194a0-9bf8-11e9-9dc8-fd27291d427f",
                    "name": "panel_6",
                    "type": "visualization"
                }
            ],
            "type": "dashboard",
            "updated_at": "2019-07-03T14:46:55.299Z",
            "version": "WzI5MywyXQ=="
        },
        {
            "attributes": {
                "description": "",
                "kibanaSavedObjectMeta": {
                    "searchSourceJSON": "{\"filter\": [], \"query\": {\"language\": \"kuery\", \"query\": \"\"}}"
                },
                "title": "Proxy CPU [Metricbeat Kubernetes]",
                "uiStateJSON": "{}",
                "version": 1,
                "visState": "{\"aggs\": [], \"title\": \"Proxy CPU [Metricbeat Kubernetes]\", \"type\": \"metrics\", \"params\": {\"type\": \"timeseries\", \"axis_scale\": \"normal\", \"show_legend\": 1, \"axis_min\": \"0\", \"axis_formatter\": \"number\", \"default_timefield\": \"@timestamp\", \"show_grid\": 1, \"series\": [{\"formatter\": \"number\", \"fill\": 0.5, \"line_width\": 1, \"split_mode\": \"everything\", \"color\": \"#68BC00\", \"point_size\": 1, \"stacked\": \"none\", \"separate_axis\": 0, \"id\": \"61ca57f1-469d-11e7-af02-69e470af7417\", \"axis_position\": \"right\", \"chart_type\": \"line\", \"metrics\": [{\"field\": \"kubernetes.proxy.process.cpu.sec\", \"type\": \"avg\", \"id\": \"61ca57f2-469d-11e7-af02-69e470af7417\"}, {\"field\": \"61ca57f2-469d-11e7-af02-69e470af7417\", \"unit\": \"\", \"type\": \"derivative\", \"id\": \"35da60d0-98fe-11e9-b4e1-6dc893538542\"}], \"value_template\": \"{{value}} s\", \"label\": \"CPU time\"}], \"id\": \"61ca57f0-469d-11e7-af02-69e470af7417\", \"axis_position\": \"left\", \"interval\": \"auto\", \"default_index_pattern\": \"metricbeat-*\", \"index_pattern\": \"metricbeat-*\", \"time_field\": \"@timestamp\"}}"
            },
            "id": "e0ddd3e0-98fe-11e9-ba57-b7ab4e2d4b58",
            "migrationVersion": {
                "visualization": "7.2.0"
            },
            "references": [],
            "type": "visualization",
            "updated_at": "2019-07-03T14:03:00.189Z",
            "version": "WzI3NCwyXQ=="
        },
        {
            "attributes": {
                "description": "",
                "kibanaSavedObjectMeta": {
                    "searchSourceJSON": "{\"filter\": [], \"query\": {\"language\": \"kuery\", \"query\": \"\"}}"
                },
                "title": "Proxy memory [Metricbeat Kubernetes]",
                "uiStateJSON": "{}",
                "version": 1,
                "visState": "{\"aggs\": [], \"title\": \"Proxy memory [Metricbeat Kubernetes]\", \"type\": \"metrics\", \"params\": {\"type\": \"timeseries\", \"axis_scale\": \"normal\", \"axis_formatter\": \"number\", \"show_legend\": 1, \"show_grid\": 1, \"series\": [{\"formatter\": \"bytes\", \"fill\": 0.5, \"line_width\": 1, \"split_mode\": \"everything\", \"color\": \"rgba(251,158,0,1)\", \"point_size\": 1, \"stacked\": \"none\", \"separate_axis\": 0, \"id\": \"61ca57f1-469d-11e7-af02-69e470af7417\", \"axis_position\": \"right\", \"chart_type\": \"line\", \"metrics\": [{\"field\": \"kubernetes.proxy.process.memory.resident.bytes\", \"type\": \"avg\", \"id\": \"61ca57f2-469d-11e7-af02-69e470af7417\"}], \"label\": \"Resident\"}, {\"formatter\": \"bytes\", \"fill\": 0.5, \"line_width\": 1, \"split_mode\": \"everything\", \"color\": \"rgba(164,221,0,1)\", \"point_size\": 1, \"stacked\": \"none\", \"separate_axis\": 0, \"id\": \"1ea6cee0-9907-11e9-b4e1-6dc893538542\", \"axis_position\": \"right\", \"chart_type\": \"line\", \"metrics\": [{\"field\": \"kubernetes.proxy.process.memory.virtual.bytes\", \"type\": \"avg\", \"id\": \"1ea6cee1-9907-11e9-b4e1-6dc893538542\"}], \"label\": \"Virtual\"}], \"id\": \"61ca57f0-469d-11e7-af02-69e470af7417\", \"axis_position\": \"left\", \"interval\": \"auto\", \"default_index_pattern\": \"metricbeat-*\", \"index_pattern\": \"metricbeat-*\", \"time_field\": \"@timestamp\"}}"
            },
            "id": "cac89fb0-9906-11e9-ba57-b7ab4e2d4b58",
            "migrationVersion": {
                "visualization": "7.2.0"
            },
            "references": [],
            "type": "visualization",
            "updated_at": "2019-07-03T11:26:56.138Z",
            "version": "WzI1NiwyXQ=="
        },
        {
            "attributes": {
                "description": "",
                "kibanaSavedObjectMeta": {
                    "searchSourceJSON": "{\"filter\": [], \"query\": {\"language\": \"kuery\", \"query\": \"\"}}"
                },
                "title": "Proxy process [Metricbeat Kubernetes]",
                "uiStateJSON": "{}",
                "version": 1,
                "visState": "{\"aggs\": [], \"title\": \"Proxy process [Metricbeat Kubernetes]\", \"type\": \"metrics\", \"params\": {\"markdown_css\": \"#markdown-61ca57f0-469d-11e7-af02-69e470af7417 table,#markdown-61ca57f0-469d-11e7-af02-69e470af7417 tr,#markdown-61ca57f0-469d-11e7-af02-69e470af7417 td,#markdown-61ca57f0-469d-11e7-af02-69e470af7417 th{border:none}\", \"type\": \"markdown\", \"markdown\": \"\\n|  |   |\\n|---|---|\\n|**Days running**|{{ math.started.last.raw }}|\\n|**File descriptors open**|{{ average_of_kubernetes_proxy_process_fds_open_count.fds.last.raw }}|\\n|**Resident Memory**|{{ average_of_kubernetes_proxy_process_memory_resident_bytes.resident_memory.last.formatted }}|\\n|**Virtual Memory**|{{ average_of_kubernetes_proxy_process_memory_virtual_bytes.virtual_memory.last.formatted }}|\\n\\n\", \"show_legend\": 1, \"axis_formatter\": \"number\", \"default_timefield\": \"@timestamp\", \"show_grid\": 1, \"series\": [{\"var_name\": \"started\", \"formatter\": \"number\", \"fill\": 0.5, \"line_width\": 1, \"split_mode\": \"everything\", \"color\": \"#68BC00\", \"point_size\": 1, \"stacked\": \"none\", \"separate_axis\": 0, \"id\": \"61ca57f1-469d-11e7-af02-69e470af7417\", \"axis_position\": \"right\", \"chart_type\": \"line\", \"metrics\": [{\"field\": \"kubernetes.proxy.process.started.sec\", \"variables\": [{\"name\": \"v\", \"id\": \"1bbc4a20-99ac-11e9-8beb-c3bf9b9dfc43\"}], \"type\": \"max\", \"id\": \"61ca57f2-469d-11e7-af02-69e470af7417\", \"script\": \"\"}, {\"field\": \"61ca57f2-469d-11e7-af02-69e470af7417\", \"variables\": [{\"field\": \"61ca57f2-469d-11e7-af02-69e470af7417\", \"name\": \"started\", \"id\": \"1f371900-99ac-11e9-8beb-c3bf9b9dfc43\"}], \"type\": \"math\", \"id\": \"1f34f620-99ac-11e9-8beb-c3bf9b9dfc43\", \"script\": \"round( (params._timestamp /1000 - params.started) / 86400, 2)\"}], \"label\": \"\"}, {\"var_name\": \"fds\", \"formatter\": \"number\", \"fill\": 0.5, \"line_width\": 1, \"split_mode\": \"everything\", \"color\": \"#68BC00\", \"point_size\": 1, \"stacked\": \"none\", \"separate_axis\": 0, \"id\": \"cc3b1700-99ac-11e9-8beb-c3bf9b9dfc43\", \"axis_position\": \"right\", \"chart_type\": \"line\", \"metrics\": [{\"field\": \"kubernetes.proxy.process.fds.open.count\", \"type\": \"avg\", \"id\": \"cc3b1701-99ac-11e9-8beb-c3bf9b9dfc43\"}], \"label\": \"\"}, {\"var_name\": \"resident_memory\", \"formatter\": \"bytes\", \"fill\": 0.5, \"line_width\": 1, \"split_mode\": \"everything\", \"color\": \"#68BC00\", \"point_size\": 1, \"stacked\": \"none\", \"separate_axis\": 0, \"id\": \"da1b1270-99ad-11e9-8beb-c3bf9b9dfc43\", \"axis_position\": \"right\", \"chart_type\": \"line\", \"metrics\": [{\"field\": \"kubernetes.proxy.process.memory.resident.bytes\", \"type\": \"avg\", \"id\": \"da1b1271-99ad-11e9-8beb-c3bf9b9dfc43\"}], \"label\": \"\"}, {\"var_name\": \"virtual_memory\", \"formatter\": \"bytes\", \"fill\": 0.5, \"line_width\": 1, \"split_mode\": \"everything\", \"color\": \"#68BC00\", \"point_size\": 1, \"stacked\": \"none\", \"separate_axis\": 0, \"id\": \"50f54000-99ae-11e9-8beb-c3bf9b9dfc43\", \"axis_position\": \"right\", \"chart_type\": \"line\", \"metrics\": [{\"field\": \"kubernetes.proxy.process.memory.virtual.bytes\", \"type\": \"avg\", \"id\": \"50f54001-99ae-11e9-8beb-c3bf9b9dfc43\"}], \"label\": \"\"}], \"axis_scale\": \"normal\", \"id\": \"61ca57f0-469d-11e7-af02-69e470af7417\", \"axis_position\": \"left\", \"interval\": \"30s\", \"default_index_pattern\": \"metricbeat-*\", \"markdown_less\": \"\\ntable, tr, td, th {\\n    border: none;\\n}\\n\\n\", \"index_pattern\": \"metricbeat-*\", \"time_field\": \"@timestamp\"}}"
            },
            "id": "09b404f0-99af-11e9-ba57-b7ab4e2d4b58",
            "migrationVersion": {
                "visualization": "7.2.0"
            },
            "references": [],
            "type": "visualization",
            "updated_at": "2019-07-03T14:46:47.946Z",
            "version": "WzI5MiwyXQ=="
        },
        {
            "attributes": {
                "description": "",
                "kibanaSavedObjectMeta": {
                    "searchSourceJSON": "{\"filter\": [], \"query\": {\"language\": \"kuery\", \"query\": \"\"}}"
                },
                "title": "Proxy HTTP request duration [Metricbeat Kubernetes]",
                "uiStateJSON": "{}",
                "version": 1,
                "visState": "{\"aggs\": [], \"title\": \"Proxy HTTP request duration [Metricbeat Kubernetes]\", \"type\": \"metrics\", \"params\": {\"type\": \"timeseries\", \"axis_scale\": \"normal\", \"axis_formatter\": \"number\", \"show_legend\": 1, \"show_grid\": 1, \"series\": [{\"formatter\": \"us,ms,2\", \"fill\": 0.5, \"line_width\": 1, \"split_mode\": \"everything\", \"color\": \"rgba(165,228,85,1)\", \"point_size\": 1, \"stacked\": \"none\", \"separate_axis\": 0, \"id\": \"05a03f20-9bd8-11e9-871d-d3c7d4c337ef\", \"axis_position\": \"right\", \"chart_type\": \"line\", \"metrics\": [{\"field\": \"kubernetes.proxy.http.request.duration.us.percentile.99\", \"type\": \"avg\", \"id\": \"05a06630-9bd8-11e9-871d-d3c7d4c337ef\"}], \"label\": \"P99\"}, {\"formatter\": \"us,ms,2\", \"fill\": 0.5, \"line_width\": 1, \"split_mode\": \"everything\", \"color\": \"#68BC00\", \"point_size\": 1, \"stacked\": \"none\", \"separate_axis\": 0, \"id\": \"dc0faec0-9bd7-11e9-871d-d3c7d4c337ef\", \"axis_position\": \"right\", \"chart_type\": \"line\", \"metrics\": [{\"field\": \"kubernetes.proxy.http.request.duration.us.percentile.90\", \"type\": \"avg\", \"id\": \"dc0faec1-9bd7-11e9-871d-d3c7d4c337ef\"}], \"label\": \"P90\"}, {\"formatter\": \"us,ms,2\", \"fill\": 0.5, \"line_width\": 1, \"split_mode\": \"everything\", \"color\": \"rgba(65,117,0,1)\", \"point_size\": 1, \"stacked\": \"none\", \"separate_axis\": 0, \"id\": \"61ca57f1-469d-11e7-af02-69e470af7417\", \"axis_position\": \"right\", \"chart_type\": \"line\", \"metrics\": [{\"field\": \"kubernetes.proxy.http.request.duration.us.percentile.50\", \"type\": \"avg\", \"id\": \"61ca57f2-469d-11e7-af02-69e470af7417\"}], \"label\": \"P50\"}], \"id\": \"61ca57f0-469d-11e7-af02-69e470af7417\", \"axis_position\": \"left\", \"interval\": \"auto\", \"default_index_pattern\": \"metricbeat-*\", \"index_pattern\": \"metricbeat-*\", \"time_field\": \"@timestamp\"}}"
            },
            "id": "8c6c2690-9bd8-11e9-9dc8-fd27291d427f",
            "migrationVersion": {
                "visualization": "7.2.0"
            },
            "references": [],
            "type": "visualization",
            "updated_at": "2019-07-03T11:25:27.941Z",
            "version": "WzI1MiwyXQ=="
        },
        {
            "attributes": {
                "description": "",
                "kibanaSavedObjectMeta": {
                    "searchSourceJSON": "{\"filter\": [], \"query\": {\"language\": \"kuery\", \"query\": \"\"}}"
                },
                "title": "Proxy network programming [Metricbeat Kubernetes]",
                "uiStateJSON": "{}",
                "version": 1,
                "visState": "{\"aggs\": [], \"title\": \"Proxy network programming [Metricbeat Kubernetes]\", \"type\": \"metrics\", \"params\": {\"gauge_color_rules\": [{\"id\": \"4de1cad0-9be5-11e9-871d-d3c7d4c337ef\"}], \"type\": \"timeseries\", \"axis_scale\": \"normal\", \"axis_min\": \"0\", \"gauge_width\": 10, \"axis_formatter\": \"number\", \"show_grid\": 1, \"show_legend\": 1, \"bar_color_rules\": [{\"id\": \"4b459c20-9be5-11e9-871d-d3c7d4c337ef\"}], \"series\": [{\"separate_axis\": 0, \"formatter\": \"number\", \"fill\": 0.5, \"line_width\": 1, \"split_mode\": \"everything\", \"color\": \"rgba(63,112,2,1)\", \"point_size\": 1, \"hidden\": false, \"label\": \"Under 16ms\", \"id\": \"61ca57f1-469d-11e7-af02-69e470af7417\", \"axis_position\": \"right\", \"chart_type\": \"line\", \"metrics\": [{\"field\": \"kubernetes.proxy.sync.networkprogramming.duration.us.bucket.16000\", \"type\": \"avg\", \"id\": \"4dbb3a90-9be6-11e9-871d-d3c7d4c337ef\"}, {\"field\": \"4dbb3a90-9be6-11e9-871d-d3c7d4c337ef\", \"unit\": \"\", \"type\": \"derivative\", \"id\": \"189688a0-9be7-11e9-871d-d3c7d4c337ef\"}], \"stacked\": \"none\"}, {\"separate_axis\": 0, \"formatter\": \"number\", \"fill\": \"0.4\", \"line_width\": 1, \"split_mode\": \"everything\", \"color\": \"rgba(138,223,24,1)\", \"point_size\": 1, \"hidden\": false, \"label\": \"Under 512ms\", \"id\": \"a60dbe60-9be7-11e9-871d-d3c7d4c337ef\", \"axis_position\": \"right\", \"chart_type\": \"line\", \"metrics\": [{\"field\": \"kubernetes.proxy.sync.networkprogramming.duration.us.bucket.512000\", \"type\": \"avg\", \"id\": \"a60dbe61-9be7-11e9-871d-d3c7d4c337ef\"}, {\"field\": \"a60dbe61-9be7-11e9-871d-d3c7d4c337ef\", \"unit\": \"\", \"type\": \"derivative\", \"id\": \"b55a1080-9be7-11e9-871d-d3c7d4c337ef\"}], \"stacked\": \"none\"}, {\"separate_axis\": 0, \"formatter\": \"number\", \"fill\": \"0.4\", \"line_width\": 1, \"split_mode\": \"everything\", \"color\": \"rgba(174,161,255,1)\", \"point_size\": 1, \"hidden\": false, \"label\": \"Under 1024 ms\", \"id\": \"c5cc4f90-9be8-11e9-871d-d3c7d4c337ef\", \"axis_position\": \"right\", \"chart_type\": \"line\", \"metrics\": [{\"field\": \"kubernetes.proxy.sync.networkprogramming.duration.us.bucket.1024000\", \"type\": \"avg\", \"id\": \"c5cc4f91-9be8-11e9-871d-d3c7d4c337ef\"}, {\"field\": \"c5cc4f91-9be8-11e9-871d-d3c7d4c337ef\", \"unit\": \"\", \"type\": \"derivative\", \"id\": \"f17cb2b0-9be8-11e9-871d-d3c7d4c337ef\"}], \"stacked\": \"none\"}, {\"separate_axis\": 0, \"formatter\": \"number\", \"fill\": \"0.2\", \"line_width\": 1, \"split_mode\": \"everything\", \"color\": \"rgba(115,216,255,1)\", \"point_size\": 1, \"hidden\": false, \"label\": \"Under 4096 ms\", \"id\": \"e0901380-9be7-11e9-871d-d3c7d4c337ef\", \"axis_position\": \"right\", \"chart_type\": \"line\", \"metrics\": [{\"field\": \"kubernetes.proxy.sync.networkprogramming.duration.us.bucket.4096000\", \"type\": \"avg\", \"id\": \"e0901381-9be7-11e9-871d-d3c7d4c337ef\"}, {\"field\": \"e0901381-9be7-11e9-871d-d3c7d4c337ef\", \"unit\": \"\", \"type\": \"derivative\", \"id\": \"f2b6fce0-9be7-11e9-871d-d3c7d4c337ef\"}], \"stacked\": \"none\"}, {\"formatter\": \"number\", \"fill\": \"0.2\", \"line_width\": 1, \"split_mode\": \"everything\", \"color\": \"rgba(252,196,0,1)\", \"point_size\": 1, \"stacked\": \"none\", \"separate_axis\": 0, \"id\": \"882fa5a0-9be9-11e9-871d-d3c7d4c337ef\", \"axis_position\": \"right\", \"chart_type\": \"line\", \"metrics\": [{\"field\": \"kubernetes.proxy.sync.networkprogramming.duration.us.bucket.8192000\", \"type\": \"avg\", \"id\": \"882fccb0-9be9-11e9-871d-d3c7d4c337ef\"}, {\"field\": \"882fccb0-9be9-11e9-871d-d3c7d4c337ef\", \"unit\": \"\", \"type\": \"derivative\", \"id\": \"9adb9d80-9be9-11e9-871d-d3c7d4c337ef\"}], \"label\": \"Under 8192 ms\"}, {\"formatter\": \"number\", \"fill\": \"0\", \"line_width\": 1, \"split_mode\": \"everything\", \"color\": \"rgba(209,119,103,1)\", \"point_size\": 1, \"stacked\": \"none\", \"separate_axis\": 0, \"id\": \"86549550-9bef-11e9-871d-d3c7d4c337ef\", \"axis_position\": \"right\", \"chart_type\": \"line\", \"metrics\": [{\"field\": \"kubernetes.proxy.sync.networkprogramming.duration.us.bucket.16384000\", \"type\": \"avg\", \"id\": \"86549551-9bef-11e9-871d-d3c7d4c337ef\"}, {\"field\": \"86549551-9bef-11e9-871d-d3c7d4c337ef\", \"unit\": \"\", \"type\": \"derivative\", \"id\": \"86549552-9bef-11e9-871d-d3c7d4c337ef\"}], \"label\": \"Under 16384 ms\"}, {\"formatter\": \"number\", \"fill\": \"0\", \"line_width\": 1, \"split_mode\": \"everything\", \"color\": \"#68BC00\", \"point_size\": 1, \"stacked\": \"none\", \"separate_axis\": 0, \"id\": \"c66bf580-9be9-11e9-871d-d3c7d4c337ef\", \"axis_position\": \"right\", \"chart_type\": \"line\", \"metrics\": [{\"field\": \"kubernetes.proxy.sync.networkprogramming.duration.us.bucket.+Inf\", \"type\": \"avg\", \"id\": \"c66bf581-9be9-11e9-871d-d3c7d4c337ef\"}, {\"field\": \"c66bf581-9be9-11e9-871d-d3c7d4c337ef\", \"unit\": \"\", \"type\": \"derivative\", \"id\": \"d48b3950-9be9-11e9-871d-d3c7d4c337ef\"}], \"label\": \"All\"}], \"gauge_inner_width\": 10, \"id\": \"61ca57f0-469d-11e7-af02-69e470af7417\", \"axis_position\": \"left\", \"interval\": \"auto\", \"background_color_rules\": [{\"id\": \"4fb3cbb0-9be5-11e9-871d-d3c7d4c337ef\"}], \"default_index_pattern\": \"metricbeat-*\", \"index_pattern\": \"metricbeat-*\", \"gauge_style\": \"half\", \"time_field\": \"@timestamp\"}}"
            },
            "id": "b8a24790-9bf0-11e9-9dc8-fd27291d427f",
            "migrationVersion": {
                "visualization": "7.2.0"
            },
            "references": [],
            "type": "visualization",
            "updated_at": "2019-07-03T11:26:26.595Z",
            "version": "WzI1NSwyXQ=="
        },
        {
            "attributes": {
                "description": "",
                "kibanaSavedObjectMeta": {
                    "searchSourceJSON": "{\"filter\": [], \"query\": {\"language\": \"kuery\", \"query\": \"\"}}"
                },
                "title": "Proxy sync rules [Metricbeat Kubernetes]",
                "uiStateJSON": "{}",
                "version": 1,
                "visState": "{\"aggs\": [], \"title\": \"Proxy sync rules [Metricbeat Kubernetes]\", \"type\": \"metrics\", \"params\": {\"type\": \"timeseries\", \"axis_scale\": \"normal\", \"axis_formatter\": \"number\", \"show_legend\": 1, \"show_grid\": 1, \"series\": [{\"separate_axis\": 0, \"formatter\": \"number\", \"fill\": 0.5, \"line_width\": 1, \"split_mode\": \"everything\", \"color\": \"rgba(63,112,2,1)\", \"point_size\": 1, \"hidden\": false, \"label\": \"Under 16 ms\", \"id\": \"61ca57f1-469d-11e7-af02-69e470af7417\", \"axis_position\": \"right\", \"chart_type\": \"line\", \"metrics\": [{\"field\": \"kubernetes.proxy.sync.rules.duration.us.bucket.16000\", \"type\": \"avg\", \"id\": \"61ca57f2-469d-11e7-af02-69e470af7417\"}, {\"field\": \"61ca57f2-469d-11e7-af02-69e470af7417\", \"unit\": \"\", \"type\": \"derivative\", \"id\": \"038a94d0-9bf4-11e9-9f03-d58417b2a60d\"}], \"stacked\": \"none\"}, {\"separate_axis\": 0, \"formatter\": \"number\", \"fill\": \"0.4\", \"line_width\": 1, \"split_mode\": \"everything\", \"color\": \"rgba(138,223,24,1)\", \"point_size\": 1, \"hidden\": false, \"label\": \"Under 512 ms\", \"id\": \"250daed0-9bf4-11e9-9f03-d58417b2a60d\", \"axis_position\": \"right\", \"chart_type\": \"line\", \"metrics\": [{\"field\": \"kubernetes.proxy.sync.rules.duration.us.bucket.512000\", \"type\": \"avg\", \"id\": \"250dd5e0-9bf4-11e9-9f03-d58417b2a60d\"}, {\"field\": \"250dd5e0-9bf4-11e9-9f03-d58417b2a60d\", \"unit\": \"\", \"type\": \"derivative\", \"id\": \"250dd5e1-9bf4-11e9-9f03-d58417b2a60d\"}], \"stacked\": \"none\"}, {\"separate_axis\": 0, \"formatter\": \"number\", \"fill\": \"0.3\", \"line_width\": 1, \"split_mode\": \"everything\", \"color\": \"rgba(174,161,255,1)\", \"point_size\": 1, \"hidden\": false, \"label\": \"Under 1024 ms\", \"id\": \"744141b0-9bf4-11e9-9f03-d58417b2a60d\", \"axis_position\": \"right\", \"chart_type\": \"line\", \"metrics\": [{\"field\": \"kubernetes.proxy.sync.rules.duration.us.bucket.1024000\", \"type\": \"avg\", \"id\": \"744141b1-9bf4-11e9-9f03-d58417b2a60d\"}, {\"field\": \"744141b1-9bf4-11e9-9f03-d58417b2a60d\", \"unit\": \"\", \"type\": \"derivative\", \"id\": \"744141b2-9bf4-11e9-9f03-d58417b2a60d\"}], \"stacked\": \"none\"}, {\"separate_axis\": 0, \"formatter\": \"number\", \"fill\": \"0.2\", \"line_width\": 1, \"split_mode\": \"everything\", \"color\": \"rgba(115,216,255,1)\", \"point_size\": 1, \"hidden\": false, \"label\": \"Under 4096 ms\", \"id\": \"e4454060-9bf4-11e9-9f03-d58417b2a60d\", \"axis_position\": \"right\", \"chart_type\": \"line\", \"metrics\": [{\"field\": \"kubernetes.proxy.sync.rules.duration.us.bucket.4096000\", \"type\": \"avg\", \"id\": \"e4454061-9bf4-11e9-9f03-d58417b2a60d\"}, {\"field\": \"e4454061-9bf4-11e9-9f03-d58417b2a60d\", \"unit\": \"\", \"type\": \"derivative\", \"id\": \"e4456770-9bf4-11e9-9f03-d58417b2a60d\"}], \"stacked\": \"none\"}, {\"separate_axis\": 0, \"formatter\": \"number\", \"fill\": \"0.1\", \"line_width\": 1, \"split_mode\": \"everything\", \"color\": \"rgba(252,196,0,1)\", \"point_size\": 1, \"hidden\": false, \"label\": \"Under 8192 ms\", \"id\": \"1ac14f80-9bf5-11e9-9f03-d58417b2a60d\", \"axis_position\": \"right\", \"chart_type\": \"line\", \"metrics\": [{\"field\": \"kubernetes.proxy.sync.rules.duration.us.bucket.8192000\", \"type\": \"avg\", \"id\": \"1ac17690-9bf5-11e9-9f03-d58417b2a60d\"}, {\"field\": \"1ac17690-9bf5-11e9-9f03-d58417b2a60d\", \"unit\": \"\", \"type\": \"derivative\", \"id\": \"1ac17691-9bf5-11e9-9f03-d58417b2a60d\"}], \"stacked\": \"none\"}, {\"separate_axis\": 0, \"formatter\": \"number\", \"fill\": \"0\", \"line_width\": 1, \"split_mode\": \"everything\", \"color\": \"rgba(209,119,103,1)\", \"point_size\": 1, \"hidden\": false, \"label\": \"Under 16384 ms\", \"id\": \"3cbf17c0-9bf5-11e9-9f03-d58417b2a60d\", \"axis_position\": \"right\", \"chart_type\": \"line\", \"metrics\": [{\"field\": \"kubernetes.proxy.sync.rules.duration.us.bucket.16384000\", \"type\": \"avg\", \"id\": \"3cbf17c1-9bf5-11e9-9f03-d58417b2a60d\"}, {\"field\": \"3cbf17c1-9bf5-11e9-9f03-d58417b2a60d\", \"unit\": \"\", \"type\": \"derivative\", \"id\": \"3cbf17c2-9bf5-11e9-9f03-d58417b2a60d\"}], \"stacked\": \"none\"}, {\"formatter\": \"number\", \"fill\": \"0\", \"line_width\": 1, \"split_mode\": \"everything\", \"color\": \"rgba(104,188,0,1)\", \"point_size\": 1, \"stacked\": \"none\", \"separate_axis\": 0, \"id\": \"58fb7c80-9bf5-11e9-9f03-d58417b2a60d\", \"axis_position\": \"right\", \"chart_type\": \"line\", \"metrics\": [{\"field\": \"kubernetes.proxy.sync.rules.duration.us.bucket.+Inf\", \"type\": \"avg\", \"id\": \"58fb7c81-9bf5-11e9-9f03-d58417b2a60d\"}, {\"field\": \"58fb7c81-9bf5-11e9-9f03-d58417b2a60d\", \"unit\": \"\", \"type\": \"derivative\", \"id\": \"58fb7c82-9bf5-11e9-9f03-d58417b2a60d\"}], \"label\": \"All\"}], \"id\": \"61ca57f0-469d-11e7-af02-69e470af7417\", \"axis_position\": \"left\", \"interval\": \"auto\", \"default_index_pattern\": \"metricbeat-*\", \"index_pattern\": \"metricbeat-*\", \"time_field\": \"@timestamp\"}}"
            },
            "id": "ba7bf750-9bf5-11e9-9dc8-fd27291d427f",
            "migrationVersion": {
                "visualization": "7.2.0"
            },
            "references": [],
            "type": "visualization",
            "updated_at": "2019-07-03T11:27:49.230Z",
            "version": "WzI1OSwyXQ=="
        },
        {
            "attributes": {
                "description": "",
                "kibanaSavedObjectMeta": {
                    "searchSourceJSON": "{\"filter\": [], \"query\": {\"language\": \"kuery\", \"query\": \"\"}}"
                },
                "title": "Host selector [Metricbeat Kubernetes]",
                "uiStateJSON": "{}",
                "version": 1,
                "visState": "{\"aggs\": [], \"title\": \"Host selector [Metricbeat Kubernetes]\", \"type\": \"input_control_vis\", \"params\": {\"controls\": [{\"parent\": \"\", \"options\": {\"type\": \"terms\", \"order\": \"desc\", \"size\": 5, \"multiselect\": true, \"dynamicOptions\": true}, \"type\": \"list\", \"indexPatternRefName\": \"control_0_index_pattern\", \"label\": \"Hostname\", \"id\": \"1561982488150\", \"fieldName\": \"host.hostname\"}, {\"parent\": \"\", \"options\": {\"type\": \"terms\", \"order\": \"desc\", \"size\": 5, \"multiselect\": false, \"dynamicOptions\": true}, \"type\": \"list\", \"indexPatternRefName\": \"control_1_index_pattern\", \"label\": \"Service address\", \"id\": \"1561982723711\", \"fieldName\": \"service.address\"}], \"pinFilters\": false, \"updateFiltersOnChange\": false, \"useTimeFilter\": false}}"
            },
            "id": "bcb194a0-9bf8-11e9-9dc8-fd27291d427f",
            "migrationVersion": {
                "visualization": "7.2.0"
            },
            "references": [
                {
                    "id": "metricbeat-*",
                    "name": "control_0_index_pattern",
                    "type": "index-pattern"
                },
                {
                    "id": "metricbeat-*",
                    "name": "control_1_index_pattern",
                    "type": "index-pattern"
                }
            ],
            "type": "visualization",
            "updated_at": "2019-07-03T07:20:34.226Z",
            "version": "WzEzMywxXQ=="
        }
    ],
    "version": "7.2.0"
}