{
    "objects": [
        {
            "attributes": {
                "description": "",
                "kibanaSavedObjectMeta": {
                    "searchSourceJSON": "{\"filter\": []}"
                },
                "savedSearchId": "Apache-HTTPD-ecs",
                "title": "CPU usage [Metricbeat Apache] ECS",
                "uiStateJSON": "{}",
                "version": 1,
                "visState": "{\"aggs\": [{\"schema\": \"metric\", \"type\": \"avg\", \"id\": \"1\", \"params\": {\"field\": \"apache.status.cpu.load\", \"customLabel\": \"CPU load\"}}, {\"schema\": \"segment\", \"type\": \"date_histogram\", \"id\": \"2\", \"params\": {\"field\": \"@timestamp\", \"customInterval\": \"2h\", \"interval\": \"auto\", \"min_doc_count\": 1, \"extended_bounds\": {}}}, {\"schema\": \"split\", \"type\": \"terms\", \"id\": \"3\", \"params\": {\"field\": \"apache.status.hostname\", \"orderBy\": \"1\", \"order\": \"desc\", \"size\": 5, \"row\": true}}, {\"schema\": \"metric\", \"type\": \"avg\", \"id\": \"4\", \"params\": {\"field\": \"apache.status.cpu.user\", \"customLabel\": \"CPU user\"}}, {\"schema\": \"metric\", \"type\": \"avg\", \"id\": \"5\", \"params\": {\"field\": \"apache.status.cpu.system\", \"customLabel\": \"CPU system\"}}, {\"schema\": \"metric\", \"type\": \"avg\", \"id\": \"6\", \"params\": {\"field\": \"apache.status.cpu.children_user\", \"customLabel\": \"CPU children user\"}}, {\"schema\": \"metric\", \"type\": \"avg\", \"id\": \"7\", \"params\": {\"field\": \"apache.status.cpu.children_system\", \"customLabel\": \"CPU children system\"}}], \"listeners\": {}, \"type\": \"line\", \"params\": {\"smoothLines\": false, \"shareYAxis\": true, \"radiusRatio\": 9, \"setYExtents\": false, \"yAxis\": {}, \"drawLinesBetweenPoints\": true, \"showCircles\": true, \"scale\": \"linear\", \"addTimeMarker\": false, \"addLegend\": true, \"defaultYExtents\": false, \"addTooltip\": true, \"interpolate\": \"linear\", \"times\": []}, \"title\": \"Apache HTTPD - CPU ECS\"}"
            },
            "id": "Apache-HTTPD-CPU-ecs",
            "type": "visualization",
            "version": 2
        },
        {
            "attributes": {
                "description": "",
                "kibanaSavedObjectMeta": {
                    "searchSourceJSON": "{\"filter\": []}"
                },
                "savedSearchId": "Apache-HTTPD-ecs",
                "title": "Hostname list [Metricbeat Apache] ECS",
                "uiStateJSON": "{\"vis\": {\"params\": {\"sort\": {\"columnIndex\": null, \"direction\": null}}}}",
                "version": 1,
                "visState": "{\"aggs\": [{\"schema\": \"metric\", \"type\": \"count\", \"id\": \"1\", \"params\": {\"customLabel\": \"Events count\"}}, {\"schema\": \"bucket\", \"type\": \"terms\", \"id\": \"2\", \"params\": {\"field\": \"apache.status.hostname\", \"orderBy\": \"1\", \"order\": \"desc\", \"size\": 5, \"customLabel\": \"Apache HTTD Hostname\"}}], \"listeners\": {}, \"type\": \"table\", \"params\": {\"showPartialRows\": false, \"showMeticsAtAllLevels\": false, \"sort\": {\"columnIndex\": null, \"direction\": null}, \"perPage\": 10}, \"title\": \"Apache HTTPD - Hostname list ECS\"}"
            },
            "id": "Apache-HTTPD-Hostname-list-ecs",
            "type": "visualization",
            "version": 2
        },
        {
            "attributes": {
                "description": "",
                "kibanaSavedObjectMeta": {
                    "searchSourceJSON": "{\"filter\": []}"
                },
                "savedSearchId": "Apache-HTTPD-ecs",
                "title": "Load1/5/15 [Metricbeat Apache] ECS",
                "uiStateJSON": "{}",
                "version": 1,
                "visState": "{\"aggs\": [{\"schema\": \"metric\", \"type\": \"avg\", \"id\": \"1\", \"params\": {\"field\": \"apache.status.load.5\", \"customLabel\": \"Load 5\"}}, {\"schema\": \"segment\", \"type\": \"date_histogram\", \"id\": \"2\", \"params\": {\"field\": \"@timestamp\", \"customInterval\": \"2h\", \"interval\": \"auto\", \"min_doc_count\": 1, \"extended_bounds\": {}}}, {\"schema\": \"metric\", \"type\": \"avg\", \"id\": \"3\", \"params\": {\"field\": \"apache.status.load.1\", \"customLabel\": \"Load 1\"}}, {\"schema\": \"metric\", \"type\": \"avg\", \"id\": \"4\", \"params\": {\"field\": \"apache.status.load.15\", \"customLabel\": \"Load 15\"}}, {\"schema\": \"split\", \"type\": \"terms\", \"id\": \"5\", \"params\": {\"field\": \"apache.status.hostname\", \"order\": \"desc\", \"size\": 5, \"row\": true, \"orderBy\": \"1\", \"customLabel\": \"Hostname\"}}], \"listeners\": {}, \"type\": \"line\", \"params\": {\"smoothLines\": false, \"shareYAxis\": true, \"radiusRatio\": 9, \"setYExtents\": false, \"yAxis\": {}, \"drawLinesBetweenPoints\": true, \"showCircles\": true, \"scale\": \"linear\", \"addTimeMarker\": false, \"addLegend\": true, \"defaultYExtents\": false, \"addTooltip\": true, \"interpolate\": \"linear\", \"times\": []}, \"title\": \"Apache HTTPD - Load1/5/15 ECS\"}"
            },
            "id": "Apache-HTTPD-Load1-slash-5-slash-15-ecs",
            "type": "visualization",
            "version": 2
        },
        {
            "attributes": {
                "description": "",
                "kibanaSavedObjectMeta": {
                    "searchSourceJSON": "{\"filter\": []}"
                },
                "savedSearchId": "Apache-HTTPD-ecs",
                "title": "Scoreboard [Metricbeat Apache] ECS",
                "uiStateJSON": "{}",
                "version": 1,
                "visState": "{\"aggs\": [{\"schema\": \"metric\", \"type\": \"avg\", \"id\": \"1\", \"params\": {\"field\": \"apache.status.scoreboard.closing_connection\", \"customLabel\": \"Closing connection\"}}, {\"schema\": \"segment\", \"type\": \"date_histogram\", \"id\": \"2\", \"params\": {\"field\": \"@timestamp\", \"customInterval\": \"2h\", \"interval\": \"auto\", \"min_doc_count\": 1, \"extended_bounds\": {}}}, {\"schema\": \"split\", \"type\": \"terms\", \"id\": \"3\", \"params\": {\"field\": \"apache.status.hostname\", \"order\": \"desc\", \"size\": 5, \"row\": true, \"orderBy\": \"1\", \"customLabel\": \"Hostname\"}}, {\"schema\": \"metric\", \"type\": \"avg\", \"id\": \"4\", \"params\": {\"field\": \"apache.status.scoreboard.dns_lookup\", \"customLabel\": \"DNS lookup\"}}, {\"schema\": \"metric\", \"type\": \"avg\", \"id\": \"5\", \"params\": {\"field\": \"apache.status.scoreboard.gracefully_finishing\", \"customLabel\": \"Gracefully finishing\"}}, {\"schema\": \"metric\", \"type\": \"avg\", \"id\": \"6\", \"params\": {\"field\": \"apache.status.scoreboard.idle_cleanup\", \"customLabel\": \"Idle cleanup\"}}, {\"schema\": \"metric\", \"type\": \"avg\", \"id\": \"7\", \"params\": {\"field\": \"apache.status.scoreboard.keepalive\", \"customLabel\": \"Keepalive\"}}, {\"schema\": \"metric\", \"type\": \"avg\", \"id\": \"8\", \"params\": {\"field\": \"apache.status.scoreboard.logging\", \"customLabel\": \"Logging\"}}, {\"schema\": \"metric\", \"type\": \"avg\", \"id\": \"9\", \"params\": {\"field\": \"apache.status.scoreboard.open_slot\", \"customLabel\": \"Open slot\"}}, {\"schema\": \"metric\", \"type\": \"avg\", \"id\": \"10\", \"params\": {\"field\": \"apache.status.scoreboard.reading_request\", \"customLabel\": \"Reading request\"}}, {\"schema\": \"metric\", \"type\": \"avg\", \"id\": \"11\", \"params\": {\"field\": \"apache.status.scoreboard.sending_reply\", \"customLabel\": \"Sending reply\"}}, {\"schema\": \"metric\", \"type\": \"avg\", \"id\": \"12\", \"params\": {\"field\": \"apache.status.scoreboard.starting_up\", \"customLabel\": \"Starting up\"}}, {\"schema\": \"metric\", \"type\": \"avg\", \"id\": \"13\", \"params\": {\"field\": \"apache.status.scoreboard.total\", \"customLabel\": \"Total\"}}, {\"schema\": \"metric\", \"type\": \"avg\", \"id\": \"14\", \"params\": {\"field\": \"apache.status.scoreboard.waiting_for_connection\", \"customLabel\": \"Waiting for connection\"}}], \"listeners\": {}, \"type\": \"line\", \"params\": {\"smoothLines\": false, \"shareYAxis\": true, \"radiusRatio\": 9, \"setYExtents\": false, \"yAxis\": {}, \"drawLinesBetweenPoints\": true, \"showCircles\": true, \"scale\": \"linear\", \"addTimeMarker\": false, \"addLegend\": true, \"defaultYExtents\": false, \"addTooltip\": true, \"interpolate\": \"linear\", \"times\": []}, \"title\": \"Apache HTTPD - Scoreboard ECS\"}"
            },
            "id": "Apache-HTTPD-Scoreboard-ecs",
            "type": "visualization",
            "version": 2
        },
        {
            "attributes": {
                "description": "",
                "kibanaSavedObjectMeta": {
                    "searchSourceJSON": "{\"filter\": []}"
                },
                "savedSearchId": "Apache-HTTPD-ecs",
                "title": "Total accesses and kbytes [Metricbeat Apache] ECS",
                "uiStateJSON": "{}",
                "version": 1,
                "visState": "{\"aggs\": [{\"schema\": \"metric\", \"type\": \"max\", \"id\": \"1\", \"params\": {\"field\": \"apache.status.total_kbytes\", \"customLabel\": \"Total kbytes\"}}, {\"schema\": \"metric\", \"type\": \"max\", \"id\": \"2\", \"params\": {\"field\": \"apache.status.total_accesses\", \"customLabel\": \"Total accesses\"}}], \"listeners\": {}, \"type\": \"metric\", \"params\": {\"fontSize\": 60, \"handleNoResults\": true}, \"title\": \"Apache HTTPD - Total accesses and kbytes ECS\"}"
            },
            "id": "Apache-HTTPD-Total-accesses-and-kbytes-ecs",
            "type": "visualization",
            "version": 2
        },
        {
            "attributes": {
                "description": "",
                "kibanaSavedObjectMeta": {
                    "searchSourceJSON": "{\"filter\": []}"
                },
                "savedSearchId": "Apache-HTTPD-ecs",
                "title": "Uptime [Metricbeat Apache] ECS",
                "uiStateJSON": "{}",
                "version": 1,
                "visState": "{\"aggs\": [{\"schema\": \"metric\", \"type\": \"max\", \"id\": \"1\", \"params\": {\"field\": \"apache.status.uptime.uptime\", \"customLabel\": \"Uptime\"}}, {\"schema\": \"metric\", \"type\": \"max\", \"id\": \"2\", \"params\": {\"field\": \"apache.status.uptime.server_uptime\", \"customLabel\": \"Server uptime\"}}], \"listeners\": {}, \"type\": \"metric\", \"params\": {\"fontSize\": 60, \"handleNoResults\": true}, \"title\": \"Apache HTTPD - Uptime ECS\"}"
            },
            "id": "Apache-HTTPD-Uptime-ecs",
            "type": "visualization",
            "version": 2
        },
        {
            "attributes": {
                "description": "",
                "kibanaSavedObjectMeta": {
                    "searchSourceJSON": "{\"filter\": []}"
                },
                "savedSearchId": "Apache-HTTPD-ecs",
                "title": "Workers [Metricbeat Apache] ECS",
                "uiStateJSON": "{}",
                "version": 1,
                "visState": "{\"aggs\": [{\"schema\": \"metric\", \"type\": \"avg\", \"id\": \"1\", \"params\": {\"field\": \"apache.status.workers.busy\", \"customLabel\": \"Busy workers\"}}, {\"schema\": \"segment\", \"type\": \"date_histogram\", \"id\": \"2\", \"params\": {\"field\": \"@timestamp\", \"customInterval\": \"2h\", \"interval\": \"auto\", \"min_doc_count\": 1, \"extended_bounds\": {}}}, {\"schema\": \"split\", \"type\": \"terms\", \"id\": \"3\", \"params\": {\"field\": \"apache.status.hostname\", \"order\": \"desc\", \"size\": 5, \"row\": true, \"orderBy\": \"1\", \"customLabel\": \"Hostname\"}}, {\"schema\": \"metric\", \"type\": \"avg\", \"id\": \"4\", \"params\": {\"field\": \"apache.status.workers.idle\", \"customLabel\": \"Idle workers\"}}], \"listeners\": {}, \"type\": \"line\", \"params\": {\"smoothLines\": false, \"shareYAxis\": true, \"radiusRatio\": 9, \"setYExtents\": false, \"yAxis\": {}, \"drawLinesBetweenPoints\": true, \"showCircles\": true, \"scale\": \"linear\", \"addTimeMarker\": false, \"addLegend\": true, \"defaultYExtents\": false, \"addTooltip\": true, \"interpolate\": \"linear\", \"times\": []}, \"title\": \"Apache HTTPD - Workers ECS\"}"
            },
            "id": "Apache-HTTPD-Workers-ecs",
            "type": "visualization",
            "version": 2
        },
        {
            "attributes": {
                "columns": [
                    "_source"
                ],
                "description": "",
                "hits": 0,
                "kibanaSavedObjectMeta": {
                    "searchSourceJSON": "{\"filter\": [], \"query\": {\"language\": \"kuery\", \"query\": \"event.module: apache\"}, \"highlight\": {\"require_field_match\": false, \"pre_tags\": [\"@kibana-highlighted-field@\"], \"fields\": {\"*\": {}}, \"fragment_size\": 2147483647, \"post_tags\": [\"@/kibana-highlighted-field@\"]}, \"index\": \"metricbeat-*\"}"
                },
                "sort": [
                    "@timestamp",
                    "desc"
                ],
                "title": "Apache HTTPD ECS",
                "version": 1
            },
            "id": "Apache-HTTPD-ecs",
            "type": "search",
            "version": 1
        },
        {
            "attributes": {
                "description": "Overview of Apache server status",
                "hits": 0,
                "kibanaSavedObjectMeta": {
                    "searchSourceJSON": "{\"highlightAll\": true, \"filter\": [], \"query\": {\"language\": \"kuery\", \"query\": \"\"}, \"version\": true}"
                },
                "optionsJSON": "{\"darkTheme\": false}",
                "panelsJSON": "[{\"type\": \"visualization\", \"panelIndex\": 1, \"id\": \"Apache-HTTPD-CPU-ecs\", \"col\": 7, \"row\": 10, \"size_x\": 6, \"size_y\": 3}, {\"type\": \"visualization\", \"panelIndex\": 2, \"id\": \"Apache-HTTPD-Hostname-list-ecs\", \"col\": 1, \"row\": 1, \"size_x\": 3, \"size_y\": 3}, {\"type\": \"visualization\", \"panelIndex\": 3, \"id\": \"Apache-HTTPD-Load1-slash-5-slash-15-ecs\", \"col\": 1, \"row\": 10, \"size_x\": 6, \"size_y\": 3}, {\"type\": \"visualization\", \"panelIndex\": 4, \"id\": \"Apache-HTTPD-Scoreboard-ecs\", \"col\": 1, \"row\": 7, \"size_x\": 12, \"size_y\": 3}, {\"type\": \"visualization\", \"panelIndex\": 5, \"id\": \"Apache-HTTPD-Total-accesses-and-kbytes-ecs\", \"col\": 7, \"row\": 1, \"size_x\": 6, \"size_y\": 3}, {\"type\": \"visualization\", \"panelIndex\": 6, \"id\": \"Apache-HTTPD-Uptime-ecs\", \"col\": 4, \"row\": 1, \"size_x\": 3, \"size_y\": 3}, {\"type\": \"visualization\", \"panelIndex\": 7, \"id\": \"Apache-HTTPD-Workers-ecs\", \"col\": 1, \"row\": 4, \"size_x\": 12, \"size_y\": 3}]",
                "timeRestore": false,
                "title": "[Metricbeat Apache] Overview ECS",
                "uiStateJSON": "{\"P-6\": {\"vis\": {\"defaultColors\": {\"0 - 100\": \"rgb(0,104,55)\"}}}, \"P-2\": {\"vis\": {\"params\": {\"sort\": {\"columnIndex\": null, \"direction\": null}}}}, \"P-5\": {\"vis\": {\"defaultColors\": {\"0 - 100\": \"rgb(0,104,55)\"}}}}",
                "version": 1
            },
            "id": "Metricbeat-Apache-HTTPD-server-status-ecs",
            "type": "dashboard",
            "version": 3
        }
    ],
    "version": "6.0.0-beta1-SNAPSHOT"
}