{
    "objects": [
        {
            "attributes": {
                "description": "Various stats for Prometheus Server",
                "hits": 0,
                "kibanaSavedObjectMeta": {
                    "searchSourceJSON": "{\"filter\": [], \"query\": {\"language\": \"kuery\", \"query\": \"\"}}"
                },
                "optionsJSON": "{\"useMargins\": true, \"hidePanelTitles\": false}",
                "panelsJSON": "[{\"panelIndex\": \"1\", \"embeddableConfig\": {}, \"gridData\": {\"w\": 24, \"y\": 0, \"x\": 0, \"i\": \"1\", \"h\": 15}, \"version\": \"7.3.0\", \"title\": \"HTTP Requests\", \"panelRefName\": \"panel_0\"}, {\"panelIndex\": \"2\", \"embeddableConfig\": {}, \"gridData\": {\"w\": 24, \"y\": 0, \"x\": 24, \"i\": \"2\", \"h\": 15}, \"version\": \"7.3.0\", \"title\": \"Query Durations\", \"panelRefName\": \"panel_1\"}, {\"panelIndex\": \"3\", \"embeddableConfig\": {}, \"gridData\": {\"w\": 24, \"y\": 15, \"x\": 24, \"i\": \"3\", \"h\": 7}, \"version\": \"7.3.0\", \"title\": \"Number of Targets\", \"panelRefName\": \"panel_2\"}, {\"panelIndex\": \"4\", \"embeddableConfig\": {}, \"gridData\": {\"w\": 24, \"y\": 22, \"x\": 0, \"i\": \"4\", \"h\": 15}, \"version\": \"7.3.0\", \"title\": \"Head Chunks\", \"panelRefName\": \"panel_3\"}, {\"panelIndex\": \"5\", \"embeddableConfig\": {}, \"gridData\": {\"w\": 11, \"y\": 15, \"x\": 0, \"i\": \"5\", \"h\": 7}, \"version\": \"7.3.0\", \"title\": \"WAL Stats\", \"panelRefName\": \"panel_4\"}, {\"panelIndex\": \"6\", \"embeddableConfig\": {}, \"gridData\": {\"w\": 13, \"y\": 15, \"x\": 11, \"i\": \"6\", \"h\": 7}, \"version\": \"7.3.0\", \"title\": \"Reload Count\", \"panelRefName\": \"panel_5\"}, {\"panelIndex\": \"7\", \"embeddableConfig\": {}, \"gridData\": {\"w\": 10, \"y\": 22, \"x\": 24, \"i\": \"7\", \"h\": 15}, \"version\": \"7.3.0\", \"title\": \"Remote API Reads\", \"panelRefName\": \"panel_6\"}, {\"panelIndex\": \"8\", \"embeddableConfig\": {}, \"gridData\": {\"w\": 14, \"y\": 22, \"x\": 34, \"i\": \"8\", \"h\": 15}, \"version\": \"7.3.0\", \"title\": \"Alert Notifications\", \"panelRefName\": \"panel_7\"}]",
                "timeRestore": false,
                "title": "[Metricbeat Prometheus] Overview",
                "version": 1
            },
            "id": "6a9b80c0-b2ed-11e9-9a23-67ee28886a4b",
            "migrationVersion": {
                "dashboard": "7.3.0"
            },
            "references": [
                {
                    "id": "19886730-b2e7-11e9-9a23-67ee28886a4b",
                    "name": "panel_0",
                    "type": "visualization"
                },
                {
                    "id": "f77c5900-b2e4-11e9-9a23-67ee28886a4b",
                    "name": "panel_1",
                    "type": "visualization"
                },
                {
                    "id": "ffb70040-b2ec-11e9-9a23-67ee28886a4b",
                    "name": "panel_2",
                    "type": "visualization"
                },
                {
                    "id": "79345b00-b2e5-11e9-9a23-67ee28886a4b",
                    "name": "panel_3",
                    "type": "visualization"
                },
                {
                    "id": "138704c0-b2f8-11e9-9a23-67ee28886a4b",
                    "name": "panel_4",
                    "type": "visualization"
                },
                {
                    "id": "d7740b40-b2fc-11e9-9a23-67ee28886a4b",
                    "name": "panel_5",
                    "type": "visualization"
                },
                {
                    "id": "edd33100-b305-11e9-9a23-67ee28886a4b",
                    "name": "panel_6",
                    "type": "visualization"
                },
                {
                    "id": "0b356630-b308-11e9-9a23-67ee28886a4b",
                    "name": "panel_7",
                    "type": "visualization"
                }
            ],
            "type": "dashboard",
            "updated_at": "2019-08-02T10:59:13.474Z",
            "version": "WzYxMCwxXQ=="
        },
        {
            "attributes": {
                "description": "",
                "kibanaSavedObjectMeta": {
                    "searchSourceJSON": "{\"filter\": [], \"query\": {\"language\": \"kuery\", \"query\": \"\"}}"
                },
                "title": "HTTP Requests [Metricbeat Prometheus]",
                "uiStateJSON": "{}",
                "version": 1,
                "visState": "{\"aggs\": [], \"title\": \"HTTP Requests [Metricbeat Prometheus]\", \"type\": \"metrics\", \"params\": {\"type\": \"timeseries\", \"axis_scale\": \"normal\", \"show_legend\": 1, \"filter\": {\"language\": \"kuery\", \"query\": \"\"}, \"axis_formatter\": \"number\", \"default_timefield\": \"@timestamp\", \"show_grid\": 1, \"series\": [{\"terms_field\": \"prometheus.labels.handler\", \"formatter\": \"number\", \"fill\": 0, \"line_width\": 2, \"split_mode\": \"terms\", \"color\": \"rgba(219,223,0,1)\", \"point_size\": 0, \"stacked\": \"none\", \"terms_size\": \"5\", \"separate_axis\": 0, \"id\": \"b2579fe1-b2e6-11e9-96a9-535735f478e7\", \"axis_position\": \"right\", \"chart_type\": \"line\", \"metrics\": [{\"field\": \"prometheus.metrics.prometheus_http_requests_total\", \"type\": \"max\", \"id\": \"b2579fe2-b2e6-11e9-96a9-535735f478e7\"}, {\"field\": \"b2579fe2-b2e6-11e9-96a9-535735f478e7\", \"unit\": \"1s\", \"type\": \"derivative\", \"id\": \"4ff83340-b445-11e9-88c2-81f27aea5920\"}], \"value_template\": \"{{value}}\", \"label\": \"HTTP Requests\"}], \"id\": \"b2579fe0-b2e6-11e9-96a9-535735f478e7\", \"axis_position\": \"left\", \"interval\": \"auto\", \"default_index_pattern\": \"metricbeat-*\", \"index_pattern\": \"metricbeat-*\", \"time_field\": \"@timestamp\"}}"
            },
            "id": "19886730-b2e7-11e9-9a23-67ee28886a4b",
            "migrationVersion": {
                "visualization": "7.3.0"
            },
            "references": [],
            "type": "visualization",
            "updated_at": "2019-08-01T10:16:22.004Z",
            "version": "WzUwMCwxXQ=="
        },
        {
            "attributes": {
                "description": "",
                "kibanaSavedObjectMeta": {
                    "searchSourceJSON": "{\"filter\": [], \"query\": {\"language\": \"kuery\", \"query\": \"\"}}"
                },
                "title": "Query Durations [Metricbeat Prometheus]",
                "uiStateJSON": "{}",
                "version": 1,
                "visState": "{\"aggs\": [], \"title\": \"Query Durations [Metricbeat Prometheus]\", \"type\": \"metrics\", \"params\": {\"type\": \"timeseries\", \"axis_scale\": \"normal\", \"show_legend\": 1, \"filter\": {\"language\": \"kuery\", \"query\": \"prometheus.labels.quantile : \\\"0.99\\\"\"}, \"axis_formatter\": \"number\", \"default_timefield\": \"@timestamp\", \"show_grid\": 1, \"series\": [{\"terms_field\": \"prometheus.labels.slice\", \"separate_axis\": 0, \"formatter\": \"'0.0[0000]'\", \"split_filters\": [{\"label\": \"Inner\", \"filter\": {\"language\": \"kuery\", \"query\": \"prometheus.labels.slice : \\\"inner_eval\\\" \"}, \"id\": \"5089a8b0-b2e3-11e9-a478-1744b9617108\", \"color\": \"#3185FC\"}], \"fill\": 0, \"line_width\": 2, \"split_mode\": \"terms\", \"color\": \"rgba(0,156,224,1)\", \"point_size\": 0, \"stacked\": \"none\", \"label\": \"Query Durations p99\", \"filter\": {\"language\": \"kuery\", \"query\": \"prometheus.labels.quantile : \\\"0.99\\\" \"}, \"id\": \"0fa40ac1-b2e3-11e9-9d48-591d2f459020\", \"axis_position\": \"right\", \"chart_type\": \"line\", \"metrics\": [{\"field\": \"prometheus.metrics.prometheus_engine_query_duration_seconds\", \"type\": \"max\", \"id\": \"0fa40ac2-b2e3-11e9-9d48-591d2f459020\"}], \"value_template\": \"{{value}}\", \"terms_order_by\": \"_count\"}], \"id\": \"0fa40ac0-b2e3-11e9-9d48-591d2f459020\", \"axis_position\": \"left\", \"interval\": \"auto\", \"default_index_pattern\": \"metricbeat-*\", \"index_pattern\": \"metricbeat-*\", \"time_field\": \"@timestamp\"}}"
            },
            "id": "f77c5900-b2e4-11e9-9a23-67ee28886a4b",
            "migrationVersion": {
                "visualization": "7.3.0"
            },
            "references": [],
            "type": "visualization",
            "updated_at": "2019-07-31T12:29:35.301Z",
            "version": "WzQ0MSwxXQ=="
        },
        {
            "attributes": {
                "description": "",
                "kibanaSavedObjectMeta": {
                    "searchSourceJSON": "{\"filter\": [], \"query\": {\"language\": \"kuery\", \"query\": \"\"}}"
                },
                "title": "Number of Targets [Metricbeat Prometheus]",
                "uiStateJSON": "{}",
                "version": 1,
                "visState": "{\"aggs\": [], \"title\": \"Number of Targets [Metricbeat Prometheus]\", \"type\": \"metrics\", \"params\": {\"type\": \"timeseries\", \"axis_scale\": \"normal\", \"show_legend\": 1, \"filter\": {\"language\": \"kuery\", \"query\": \"\"}, \"axis_formatter\": \"number\", \"default_timefield\": \"@timestamp\", \"show_grid\": 1, \"series\": [{\"terms_field\": \"prometheus.labels.name\", \"separate_axis\": 0, \"formatter\": \"number\", \"fill\": \"0.2\", \"line_width\": \"1\", \"split_mode\": \"terms\", \"color\": \"rgba(0,156,224,1)\", \"point_size\": \"0\", \"stacked\": \"none\", \"steps\": 1, \"label\": \"Total Number of Discovered Targets\", \"filter\": {\"language\": \"kuery\", \"query\": \"\"}, \"id\": \"08298161-b2ea-11e9-a1e3-dd90a90fb461\", \"axis_position\": \"right\", \"chart_type\": \"line\", \"metrics\": [{\"field\": \"prometheus.metrics.prometheus_sd_discovered_targets\", \"type\": \"max\", \"id\": \"08298162-b2ea-11e9-a1e3-dd90a90fb461\"}], \"value_template\": \"{{value}}\", \"terms_direction\": \"desc\", \"terms_order_by\": \"08298162-b2ea-11e9-a1e3-dd90a90fb461\"}], \"id\": \"08298160-b2ea-11e9-a1e3-dd90a90fb461\", \"axis_position\": \"left\", \"interval\": \"auto\", \"default_index_pattern\": \"metricbeat-*\", \"index_pattern\": \"metricbeat-*\", \"time_field\": \"@timestamp\"}}"
            },
            "id": "ffb70040-b2ec-11e9-9a23-67ee28886a4b",
            "migrationVersion": {
                "visualization": "7.3.0"
            },
            "references": [],
            "type": "visualization",
            "updated_at": "2019-07-31T12:34:36.214Z",
            "version": "WzQ2MiwxXQ=="
        },
        {
            "attributes": {
                "description": "",
                "kibanaSavedObjectMeta": {
                    "searchSourceJSON": "{\"filter\": [], \"query\": {\"language\": \"kuery\", \"query\": \"\"}}"
                },
                "title": "Head Chunks [Metricbeat Prometheus]",
                "uiStateJSON": "{}",
                "version": 1,
                "visState": "{\"aggs\": [], \"title\": \"Head Chunks [Metricbeat Prometheus]\", \"type\": \"metrics\", \"params\": {\"type\": \"timeseries\", \"axis_scale\": \"normal\", \"show_legend\": 1, \"filter\": {\"language\": \"kuery\", \"query\": \"\"}, \"axis_formatter\": \"number\", \"default_timefield\": \"@timestamp\", \"show_grid\": 1, \"series\": [{\"formatter\": \"number\", \"fill\": 0, \"line_width\": 2, \"split_mode\": \"everything\", \"color\": \"rgba(101,50,148,1)\", \"point_size\": 0, \"stacked\": \"none\", \"separate_axis\": 0, \"id\": \"2f5a9030-b2e5-11e9-b248-0162f01eb4ee\", \"axis_position\": \"right\", \"chart_type\": \"line\", \"metrics\": [{\"field\": \"prometheus.metrics.prometheus_tsdb_head_chunks\", \"type\": \"max\", \"id\": \"2f5a9031-b2e5-11e9-b248-0162f01eb4ee\"}], \"value_template\": \"{{value}}\", \"label\": \"Head Chunks\"}], \"id\": \"2f5a6920-b2e5-11e9-b248-0162f01eb4ee\", \"axis_position\": \"left\", \"interval\": \"auto\", \"default_index_pattern\": \"metricbeat-*\", \"index_pattern\": \"metricbeat-*\", \"time_field\": \"@timestamp\"}}"
            },
            "id": "79345b00-b2e5-11e9-9a23-67ee28886a4b",
            "migrationVersion": {
                "visualization": "7.3.0"
            },
            "references": [],
            "type": "visualization",
            "updated_at": "2019-07-31T12:35:36.349Z",
            "version": "WzQ2OSwxXQ=="
        },
        {
            "attributes": {
                "description": "",
                "kibanaSavedObjectMeta": {
                    "searchSourceJSON": "{\"filter\": [], \"query\": {\"language\": \"kuery\", \"query\": \"\"}}"
                },
                "title": "WAL [Metricbeat Prometheus]",
                "uiStateJSON": "{}",
                "version": 1,
                "visState": "{\"aggs\": [], \"title\": \"WAL [Metricbeat Prometheus]\", \"type\": \"metrics\", \"params\": {\"type\": \"top_n\", \"axis_scale\": \"normal\", \"show_legend\": 1, \"filter\": {\"language\": \"kuery\", \"query\": \"\"}, \"axis_formatter\": \"number\", \"show_grid\": 1, \"default_timefield\": \"@timestamp\", \"bar_color_rules\": [{\"id\": \"f4985140-b2f7-11e9-8481-37d39feabbb2\"}], \"series\": [{\"formatter\": \"number\", \"fill\": 0, \"line_width\": 2, \"split_mode\": \"everything\", \"color\": \"rgba(247,75,56,1)\", \"point_size\": 0, \"stacked\": \"none\", \"separate_axis\": 0, \"id\": \"ce91f910-b2f7-11e9-9e3f-5b12e64d4361\", \"axis_position\": \"right\", \"chart_type\": \"line\", \"metrics\": [{\"field\": \"prometheus.metrics.prometheus_tsdb_wal_truncations_failed_total\", \"type\": \"max\", \"id\": \"ce91f911-b2f7-11e9-9e3f-5b12e64d4361\"}], \"value_template\": \"{{value}}\", \"label\": \"Failed WAL Truncations\"}, {\"formatter\": \"number\", \"fill\": 0, \"line_width\": 2, \"split_mode\": \"everything\", \"color\": \"rgba(251,158,0,1)\", \"point_size\": 0, \"stacked\": \"none\", \"separate_axis\": 0, \"id\": \"ce91f912-b2f7-11e9-9e3f-5b12e64d4361\", \"axis_position\": \"right\", \"chart_type\": \"line\", \"metrics\": [{\"field\": \"prometheus.metrics.prometheus_tsdb_wal_corruptions_total\", \"type\": \"max\", \"id\": \"ce91f913-b2f7-11e9-9e3f-5b12e64d4361\"}], \"value_template\": \"{{value}}\", \"label\": \"WAL Corruptions Total\"}], \"id\": \"ce91d200-b2f7-11e9-9e3f-5b12e64d4361\", \"axis_position\": \"left\", \"interval\": \"auto\", \"default_index_pattern\": \"metricbeat-*\", \"index_pattern\": \"metricbeat-*\", \"time_field\": \"@timestamp\"}}"
            },
            "id": "138704c0-b2f8-11e9-9a23-67ee28886a4b",
            "migrationVersion": {
                "visualization": "7.3.0"
            },
            "references": [],
            "type": "visualization",
            "updated_at": "2019-07-31T12:31:29.355Z",
            "version": "WzQ0NywxXQ=="
        },
        {
            "attributes": {
                "description": "",
                "kibanaSavedObjectMeta": {
                    "searchSourceJSON": "{\"filter\": [], \"query\": {\"language\": \"kuery\", \"query\": \"\"}}"
                },
                "title": "Reload Count [Metricbeat Prometheus]",
                "uiStateJSON": "{}",
                "version": 1,
                "visState": "{\"aggs\": [], \"title\": \"Reload Count [Metricbeat Prometheus]\", \"type\": \"metrics\", \"params\": {\"type\": \"timeseries\", \"axis_scale\": \"normal\", \"show_legend\": 1, \"filter\": {\"language\": \"kuery\", \"query\": \"\"}, \"axis_formatter\": \"number\", \"default_timefield\": \"@timestamp\", \"show_grid\": 1, \"series\": [{\"formatter\": \"'0.0[0000]'\", \"fill\": \"0.2\", \"line_width\": \"1\", \"split_mode\": \"everything\", \"color\": \"rgba(12,121,125,1)\", \"point_size\": 0, \"stacked\": \"none\", \"steps\": 1, \"separate_axis\": 0, \"id\": \"6acaf761-b2fc-11e9-86ff-9300d5a00260\", \"axis_position\": \"right\", \"chart_type\": \"line\", \"metrics\": [{\"field\": \"prometheus.metrics.prometheus_tsdb_reloads_total\", \"type\": \"max\", \"id\": \"6acaf762-b2fc-11e9-86ff-9300d5a00260\"}, {\"field\": \"6acaf762-b2fc-11e9-86ff-9300d5a00260\", \"unit\": \"1s\", \"type\": \"derivative\", \"id\": \"6acaf764-b2fc-11e9-86ff-9300d5a00260\"}, {\"field\": \"6acaf764-b2fc-11e9-86ff-9300d5a00260\", \"type\": \"positive_only\", \"id\": \"6acaf763-b2fc-11e9-86ff-9300d5a00260\"}], \"value_template\": \"{{value}}\", \"label\": \"reloads\"}, {\"formatter\": \"'0.0[0000]'\", \"fill\": \"0.2\", \"line_width\": \"1\", \"split_mode\": \"everything\", \"color\": \"#DB1374\", \"point_size\": 0, \"stacked\": \"none\", \"steps\": 1, \"separate_axis\": 0, \"id\": \"6acaf765-b2fc-11e9-86ff-9300d5a00260\", \"axis_position\": \"right\", \"chart_type\": \"line\", \"metrics\": [{\"field\": \"prometheus.metrics.prometheus_tsdb_reloads_failures_total\", \"type\": \"max\", \"id\": \"6acaf766-b2fc-11e9-86ff-9300d5a00260\"}, {\"field\": \"6acaf766-b2fc-11e9-86ff-9300d5a00260\", \"unit\": \"1s\", \"type\": \"derivative\", \"id\": \"6acaf768-b2fc-11e9-86ff-9300d5a00260\"}, {\"field\": \"6acaf768-b2fc-11e9-86ff-9300d5a00260\", \"type\": \"positive_only\", \"id\": \"6acaf767-b2fc-11e9-86ff-9300d5a00260\"}], \"value_template\": \"{{value}}\", \"label\": \"failures\"}], \"id\": \"6acaf760-b2fc-11e9-86ff-9300d5a00260\", \"axis_position\": \"left\", \"interval\": \"auto\", \"default_index_pattern\": \"metricbeat-*\", \"index_pattern\": \"metricbeat-*\", \"time_field\": \"@timestamp\"}}"
            },
            "id": "d7740b40-b2fc-11e9-9a23-67ee28886a4b",
            "migrationVersion": {
                "visualization": "7.3.0"
            },
            "references": [],
            "type": "visualization",
            "updated_at": "2019-07-30T19:05:35.833Z",
            "version": "WzM3OSwxXQ=="
        },
        {
            "attributes": {
                "description": "",
                "kibanaSavedObjectMeta": {
                    "searchSourceJSON": "{\"filter\": [], \"query\": {\"language\": \"kuery\", \"query\": \"\"}}"
                },
                "title": "Remote API Reads [Metricbeat Prometheus]",
                "uiStateJSON": "{}",
                "version": 1,
                "visState": "{\"aggs\": [], \"title\": \"Remote API Reads [Metricbeat Prometheus]\", \"type\": \"metrics\", \"params\": {\"type\": \"timeseries\", \"axis_scale\": \"normal\", \"show_legend\": 1, \"filter\": {\"language\": \"kuery\", \"query\": \"\"}, \"axis_formatter\": \"number\", \"default_timefield\": \"@timestamp\", \"show_grid\": 1, \"series\": [{\"formatter\": \"number\", \"fill\": 0, \"line_width\": 2, \"split_mode\": \"everything\", \"color\": \"rgba(219,223,0,1)\", \"point_size\": 0, \"stacked\": \"none\", \"separate_axis\": 0, \"id\": \"a3dbf321-b305-11e9-a86d-99bede5bfcc3\", \"axis_position\": \"right\", \"chart_type\": \"line\", \"metrics\": [{\"field\": \"prometheus.metrics.prometheus_api_remote_read_queries\", \"type\": \"max\", \"id\": \"a3dbf322-b305-11e9-a86d-99bede5bfcc3\"}, {\"field\": \"a3dbf322-b305-11e9-a86d-99bede5bfcc3\", \"unit\": \"1s\", \"type\": \"derivative\", \"id\": \"a3dbf324-b305-11e9-a86d-99bede5bfcc3\"}, {\"field\": \"a3dbf324-b305-11e9-a86d-99bede5bfcc3\", \"type\": \"positive_only\", \"id\": \"a3dbf323-b305-11e9-a86d-99bede5bfcc3\"}], \"value_template\": \"{{value}}\", \"label\": \"# of remote read queries\"}], \"id\": \"a3dbf320-b305-11e9-a86d-99bede5bfcc3\", \"axis_position\": \"left\", \"interval\": \"auto\", \"default_index_pattern\": \"metricbeat-*\", \"index_pattern\": \"metricbeat-*\", \"time_field\": \"@timestamp\"}}"
            },
            "id": "edd33100-b305-11e9-9a23-67ee28886a4b",
            "migrationVersion": {
                "visualization": "7.3.0"
            },
            "references": [],
            "type": "visualization",
            "updated_at": "2019-07-30T20:09:25.775Z",
            "version": "WzM5NCwxXQ=="
        },
        {
            "attributes": {
                "description": "",
                "kibanaSavedObjectMeta": {
                    "searchSourceJSON": "{\"filter\": [], \"query\": {\"language\": \"kuery\", \"query\": \"\"}}"
                },
                "title": "Alert Notifications [Metricbeat Prometheus]",
                "uiStateJSON": "{}",
                "version": 1,
                "visState": "{\"aggs\": [], \"title\": \"Alert Notifications [Metricbeat Prometheus]\", \"type\": \"metrics\", \"params\": {\"type\": \"timeseries\", \"axis_scale\": \"normal\", \"show_legend\": 1, \"filter\": {\"language\": \"kuery\", \"query\": \"\"}, \"axis_formatter\": \"number\", \"default_timefield\": \"@timestamp\", \"show_grid\": 1, \"series\": [{\"formatter\": \"number\", \"fill\": 0, \"line_width\": 2, \"split_mode\": \"everything\", \"color\": \"rgba(211,49,21,1)\", \"point_size\": 0, \"stacked\": \"none\", \"separate_axis\": 0, \"id\": \"b1741ab1-b307-11e9-95cd-c3f5589dc7d2\", \"axis_position\": \"right\", \"chart_type\": \"line\", \"metrics\": [{\"field\": \"prometheus.metrics.prometheus_notifications_queue_capacity\", \"type\": \"max\", \"id\": \"b1741ab2-b307-11e9-95cd-c3f5589dc7d2\"}], \"value_template\": \"{{value}}\", \"label\": \"Capacity of the alert notifications queue\"}, {\"formatter\": \"number\", \"fill\": \"0.2\", \"line_width\": \"1\", \"split_mode\": \"everything\", \"color\": \"rgba(176,188,0,1)\", \"point_size\": 0, \"stacked\": \"none\", \"separate_axis\": 0, \"id\": \"b1741ab3-b307-11e9-95cd-c3f5589dc7d2\", \"axis_position\": \"right\", \"chart_type\": \"line\", \"metrics\": [{\"field\": \"prometheus.metrics.prometheus_notifications_queue_length\", \"type\": \"max\", \"id\": \"b1741ab4-b307-11e9-95cd-c3f5589dc7d2\"}], \"value_template\": \"{{value}}\", \"label\": \"Alert notifications in the queue\"}], \"id\": \"b1741ab0-b307-11e9-95cd-c3f5589dc7d2\", \"axis_position\": \"left\", \"interval\": \"auto\", \"default_index_pattern\": \"metricbeat-*\", \"index_pattern\": \"metricbeat-*\", \"time_field\": \"@timestamp\"}}"
            },
            "id": "0b356630-b308-11e9-9a23-67ee28886a4b",
            "migrationVersion": {
                "visualization": "7.3.0"
            },
            "references": [],
            "type": "visualization",
            "updated_at": "2019-07-30T20:24:34.067Z",
            "version": "WzQwMiwxXQ=="
        }
    ],
    "version": "7.3.0"
}