{
    "objects": [
        {
            "attributes": {
                "description": "HAProxy overview",
                "hits": 0,
                "kibanaSavedObjectMeta": {
                    "searchSourceJSON": "{\"highlightAll\": true, \"filter\": [], \"query\": {\"language\": \"kuery\", \"query\": \"\"}, \"version\": true}"
                },
                "optionsJSON": "{\"useMargins\": true, \"hidePanelTitles\": false, \"darkTheme\": false}",
                "panelsJSON": "[{\"type\": \"visualization\", \"panelIndex\": \"2\", \"id\": \"79350d50-47db-11e8-bc13-1397384faad3-ecs\", \"gridData\": {\"w\": 4, \"y\": 2, \"x\": 8, \"i\": \"2\", \"h\": 6}, \"version\": \"6.2.2\", \"title\": \"Servers\"}, {\"type\": \"visualization\", \"panelIndex\": \"3\", \"id\": \"8c8f0300-47dc-11e8-bc13-1397384faad3-ecs\", \"gridData\": {\"w\": 4, \"y\": 2, \"x\": 4, \"i\": \"3\", \"h\": 6}, \"version\": \"6.2.2\", \"title\": \"Backends\"}, {\"type\": \"visualization\", \"panelIndex\": \"4\", \"id\": \"f1e27ed0-47dc-11e8-bc13-1397384faad3-ecs\", \"gridData\": {\"w\": 4, \"y\": 2, \"x\": 0, \"i\": \"4\", \"h\": 6}, \"version\": \"6.2.2\", \"title\": \"Frontends\"}, {\"type\": \"visualization\", \"panelIndex\": \"5\", \"id\": \"a64b4fd0-471c-11e8-bc13-1397384faad3-ecs\", \"gridData\": {\"w\": 12, \"y\": 0, \"x\": 0, \"i\": \"5\", \"h\": 2}, \"version\": \"6.2.2\"}]",
                "timeRestore": false,
                "title": "[Metricbeat HAProxy] Overview ECS",
                "version": 1
            },
            "id": "4b555c30-47dd-11e8-bc13-1397384faad3-ecs",
            "type": "dashboard",
            "updated_at": "2018-04-24T18:31:56.356Z",
            "version": 3
        }
    ],
    "version": "6.2.2"
}