2021-05-21T13:58:19.344+0700	INFO	instance/beat.go:660	Home path: [/Users/21059302/CHIP7/elk-monitoring/filebeat] Config path: [/Users/21059302/CHIP7/elk-monitoring/filebeat] Data path: [/Users/21059302/CHIP7/elk-monitoring/filebeat/data] Logs path: [/Users/21059302/CHIP7/elk-monitoring/filebeat/logs]
2021-05-21T13:58:19.351+0700	INFO	instance/beat.go:668	Beat ID: dbd20613-b3e3-40e9-a016-b937c6fd699a
2021-05-21T13:58:19.468+0700	INFO	[beat]	instance/beat.go:996	Beat info	{"system_info": {"beat": {"path": {"config": "/Users/21059302/CHIP7/elk-monitoring/filebeat", "data": "/Users/21059302/CHIP7/elk-monitoring/filebeat/data", "home": "/Users/21059302/CHIP7/elk-monitoring/filebeat", "logs": "/Users/21059302/CHIP7/elk-monitoring/filebeat/logs"}, "type": "filebeat", "uuid": "dbd20613-b3e3-40e9-a016-b937c6fd699a"}}}
2021-05-21T13:58:19.468+0700	INFO	[beat]	instance/beat.go:1005	Build info	{"system_info": {"build": {"commit": "651a2ad1225f3d4420a22eba847de385b71f711d", "libbeat": "7.12.1", "time": "2021-04-20T20:58:32.000Z", "version": "7.12.1"}}}
2021-05-21T13:58:19.468+0700	INFO	[beat]	instance/beat.go:1008	Go runtime info	{"system_info": {"go": {"os":"darwin","arch":"amd64","max_procs":8,"version":"go1.15.9"}}}
2021-05-21T13:58:19.469+0700	INFO	[beat]	instance/beat.go:1012	Host info	{"system_info": {"host": {"architecture":"x86_64","boot_time":"2021-05-21T12:49:47.927481+07:00","name":"MAC10RP3XYCHIP.local","ip":["127.0.0.1/8","::1/128","fe80::1/64","fe80::aede:48ff:fe00:1122/64","fe80::e5:e7b4:5346:9aee/64","10.5.11.181/23","fe80::8cf4:60ff:fe7a:95e3/64","fe80::8cf4:60ff:fe7a:95e3/64","fe80::b750:58a8:5297:fd59/64","fe80::96d6:3824:60db:d2ab/64"],"kernel_version":"19.6.0","mac":["ac:de:48:00:11:22","2a:f8:bc:5f:ff:4e","08:f8:bc:5f:ff:4e","82:88:21:08:60:01","82:88:21:08:60:00","82:88:21:08:60:01","0a:f8:bc:5f:ff:4e","8e:f4:60:7a:95:e3","8e:f4:60:7a:95:e3"],"os":{"type":"macos","family":"darwin","platform":"darwin","name":"Mac OS X","version":"10.15.7","major":10,"minor":15,"patch":7,"build":"19H524"},"timezone":"WIB","timezone_offset_sec":25200,"id":"171EEBA8-1E5F-58AE-BE7F-C0C18FDD7F83"}}}
2021-05-21T13:58:19.469+0700	INFO	[beat]	instance/beat.go:1041	Process info	{"system_info": {"process": {"cwd": "/Users/21059302/CHIP7/elk-monitoring/filebeat", "exe": "./filebeat", "name": "filebeat", "pid": 5290, "ppid": 5288, "start_time": "2021-05-21T13:58:19.262+0700"}}}
2021-05-21T13:58:19.469+0700	INFO	instance/beat.go:304	Setup Beat: filebeat; Version: 7.12.1
2021-05-21T13:58:19.469+0700	INFO	[index-management]	idxmgmt/std.go:184	Set output.elasticsearch.index to 'filebeat-7.12.1' as ILM is enabled.
2021-05-21T13:58:19.469+0700	INFO	eslegclient/connection.go:99	elasticsearch url: http://localhost:9200
2021-05-21T13:58:19.470+0700	INFO	[publisher]	pipeline/module.go:113	Beat name: MAC10RP3XYCHIP.local
2021-05-21T13:58:19.472+0700	INFO	eslegclient/connection.go:99	elasticsearch url: http://localhost:9200
2021-05-21T13:58:19.479+0700	INFO	[esclientleg]	eslegclient/connection.go:314	Attempting to connect to Elasticsearch version 7.12.0
2021-05-21T13:58:19.497+0700	INFO	[index-management]	idxmgmt/std.go:261	Auto ILM enable success.
2021-05-21T13:58:19.502+0700	INFO	[index-management.ilm]	ilm/std.go:139	do not generate ilm policy: exists=true, overwrite=false
2021-05-21T13:58:19.502+0700	INFO	[index-management]	idxmgmt/std.go:274	ILM policy successfully loaded.
2021-05-21T13:58:19.502+0700	INFO	[index-management]	idxmgmt/std.go:407	Set setup.template.name to '{filebeat-7.12.1 {now/d}-000001}' as ILM is enabled.
2021-05-21T13:58:19.502+0700	INFO	[index-management]	idxmgmt/std.go:412	Set setup.template.pattern to 'filebeat-7.12.1-*' as ILM is enabled.
2021-05-21T13:58:19.502+0700	INFO	[index-management]	idxmgmt/std.go:446	Set settings.index.lifecycle.rollover_alias in template to {filebeat-7.12.1 {now/d}-000001} as ILM is enabled.
2021-05-21T13:58:19.502+0700	INFO	[index-management]	idxmgmt/std.go:450	Set settings.index.lifecycle.name in template to {filebeat {"policy":{"phases":{"hot":{"actions":{"rollover":{"max_age":"30d","max_size":"50gb"}}}}}}} as ILM is enabled.
2021-05-21T13:58:19.507+0700	INFO	template/load.go:183	Existing template will be overwritten, as overwrite is enabled.
2021-05-21T13:58:20.426+0700	INFO	template/load.go:117	Try loading template filebeat-7.12.1 to Elasticsearch
2021-05-21T13:58:20.751+0700	INFO	template/load.go:109	template with name 'filebeat-7.12.1' loaded.
2021-05-21T13:58:20.751+0700	INFO	[index-management]	idxmgmt/std.go:298	Loaded index template.
2021-05-21T13:58:20.754+0700	INFO	[index-management]	idxmgmt/std.go:309	Write alias successfully generated.
2021-05-21T13:58:20.754+0700	INFO	kibana/client.go:119	Kibana url: http://localhost:5601
2021-05-21T13:58:22.043+0700	INFO	kibana/client.go:119	Kibana url: http://localhost:5601
2021-05-21T13:58:22.353+0700	INFO	[add_cloud_metadata]	add_cloud_metadata/add_cloud_metadata.go:101	add_cloud_metadata: hosting provider type not detected.
