2021-05-12T10:26:38.346+0700	INFO	instance/beat.go:660	Home path: [/Users/21059308/Documents/repository/elk-monitoring/filebeat] Config path: [/Users/21059308/Documents/repository/elk-monitoring/filebeat] Data path: [/Users/21059308/Documents/repository/elk-monitoring/filebeat/data] Logs path: [/Users/21059308/Documents/repository/elk-monitoring/filebeat/logs]
2021-05-12T10:26:39.771+0700	INFO	instance/beat.go:668	Beat ID: dbd20613-b3e3-40e9-a016-b937c6fd699a
2021-05-12T10:26:39.848+0700	INFO	[beat]	instance/beat.go:996	Beat info	{"system_info": {"beat": {"path": {"config": "/Users/21059308/Documents/repository/elk-monitoring/filebeat", "data": "/Users/21059308/Documents/repository/elk-monitoring/filebeat/data", "home": "/Users/21059308/Documents/repository/elk-monitoring/filebeat", "logs": "/Users/21059308/Documents/repository/elk-monitoring/filebeat/logs"}, "type": "filebeat", "uuid": "dbd20613-b3e3-40e9-a016-b937c6fd699a"}}}
2021-05-12T10:26:39.849+0700	INFO	[beat]	instance/beat.go:1005	Build info	{"system_info": {"build": {"commit": "651a2ad1225f3d4420a22eba847de385b71f711d", "libbeat": "7.12.1", "time": "2021-04-20T20:58:32.000Z", "version": "7.12.1"}}}
2021-05-12T10:26:39.849+0700	INFO	[beat]	instance/beat.go:1008	Go runtime info	{"system_info": {"go": {"os":"darwin","arch":"amd64","max_procs":8,"version":"go1.15.9"}}}
2021-05-12T10:26:39.849+0700	INFO	[beat]	instance/beat.go:1012	Host info	{"system_info": {"host": {"architecture":"x86_64","boot_time":"2021-05-11T08:21:14.524085+07:00","name":"MACAZMP3XYCHIP.local","ip":["127.0.0.1/8","::1/128","fe80::1/64","fe80::aede:48ff:fe00:1122/64","fe80::10b0:6b82:ab08:afc3/64","192.168.31.195/24","fe80::1453:6cff:fe84:fd10/64","fe80::1453:6cff:fe84:fd10/64","fe80::cbb7:d864:e381:6ff5/64","fe80::e401:2e3c:5123:c5cd/64","10.6.4.13/24"],"kernel_version":"19.6.0","mac":["ac:de:48:00:11:22","2a:f8:bc:6a:ba:30","08:f8:bc:6a:ba:30","82:87:27:00:50:01","82:87:27:00:50:00","82:87:27:00:50:01","0a:f8:bc:6a:ba:30","16:53:6c:84:fd:10","16:53:6c:84:fd:10"],"os":{"type":"macos","family":"darwin","platform":"darwin","name":"Mac OS X","version":"10.15.7","major":10,"minor":15,"patch":7,"build":"19H15"},"timezone":"WIB","timezone_offset_sec":25200,"id":"13D8B088-F438-56B7-9182-83C4B604503E"}}}
2021-05-12T10:26:39.850+0700	INFO	[beat]	instance/beat.go:1041	Process info	{"system_info": {"process": {"cwd": "/Users/21059308/Documents/repository/elk-monitoring/filebeat", "exe": "./filebeat", "name": "filebeat", "pid": 12746, "ppid": 12744, "start_time": "2021-05-12T10:26:33.505+0700"}}}
2021-05-12T10:26:39.850+0700	INFO	instance/beat.go:304	Setup Beat: filebeat; Version: 7.12.1
2021-05-12T10:26:39.850+0700	INFO	[index-management]	idxmgmt/std.go:184	Set output.elasticsearch.index to 'filebeat-7.12.1' as ILM is enabled.
2021-05-12T10:26:39.850+0700	INFO	eslegclient/connection.go:99	elasticsearch url: http://localhost:9200
2021-05-12T10:26:39.852+0700	INFO	[publisher]	pipeline/module.go:113	Beat name: MACAZMP3XYCHIP.local
2021-05-12T10:26:39.857+0700	INFO	eslegclient/connection.go:99	elasticsearch url: http://localhost:9200
2021-05-12T10:26:39.916+0700	INFO	[esclientleg]	eslegclient/connection.go:314	Attempting to connect to Elasticsearch version 7.12.0
2021-05-12T10:26:39.943+0700	INFO	[index-management]	idxmgmt/std.go:261	Auto ILM enable success.
2021-05-12T10:26:39.947+0700	INFO	[index-management.ilm]	ilm/std.go:139	do not generate ilm policy: exists=true, overwrite=false
2021-05-12T10:26:39.947+0700	INFO	[index-management]	idxmgmt/std.go:274	ILM policy successfully loaded.
2021-05-12T10:26:39.947+0700	INFO	[index-management]	idxmgmt/std.go:407	Set setup.template.name to '{filebeat-7.12.1 {now/d}-000001}' as ILM is enabled.
2021-05-12T10:26:39.947+0700	INFO	[index-management]	idxmgmt/std.go:412	Set setup.template.pattern to 'filebeat-7.12.1-*' as ILM is enabled.
2021-05-12T10:26:39.947+0700	INFO	[index-management]	idxmgmt/std.go:446	Set settings.index.lifecycle.rollover_alias in template to {filebeat-7.12.1 {now/d}-000001} as ILM is enabled.
2021-05-12T10:26:39.948+0700	INFO	[index-management]	idxmgmt/std.go:450	Set settings.index.lifecycle.name in template to {filebeat {"policy":{"phases":{"hot":{"actions":{"rollover":{"max_age":"30d","max_size":"50gb"}}}}}}} as ILM is enabled.
2021-05-12T10:26:39.954+0700	INFO	template/load.go:183	Existing template will be overwritten, as overwrite is enabled.
2021-05-12T10:26:40.950+0700	INFO	template/load.go:117	Try loading template filebeat-7.12.1 to Elasticsearch
2021-05-12T10:26:41.226+0700	INFO	template/load.go:109	template with name 'filebeat-7.12.1' loaded.
2021-05-12T10:26:41.226+0700	INFO	[index-management]	idxmgmt/std.go:298	Loaded index template.
2021-05-12T10:26:41.234+0700	INFO	[index-management]	idxmgmt/std.go:309	Write alias successfully generated.
2021-05-12T10:26:41.234+0700	INFO	kibana/client.go:119	Kibana url: http://localhost:5601
2021-05-12T10:26:42.680+0700	INFO	kibana/client.go:119	Kibana url: http://localhost:5601
2021-05-12T10:26:42.773+0700	INFO	[add_cloud_metadata]	add_cloud_metadata/add_cloud_metadata.go:101	add_cloud_metadata: hosting provider type not detected.
2021-05-12T10:27:58.536+0700	INFO	instance/beat.go:830	Kibana dashboards successfully loaded.
2021-05-12T10:27:58.536+0700	WARN	[cfgwarn]	instance/beat.go:569	DEPRECATED: Setting up ML using Filebeat is going to be removed. Please use the ML app to setup jobs. Will be removed in version: 8.0.0
2021-05-12T10:27:58.536+0700	INFO	eslegclient/connection.go:99	elasticsearch url: http://localhost:9200
2021-05-12T10:27:58.547+0700	INFO	[esclientleg]	eslegclient/connection.go:314	Attempting to connect to Elasticsearch version 7.12.0
2021-05-12T10:27:58.547+0700	INFO	kibana/client.go:119	Kibana url: http://localhost:5601
2021-05-12T10:27:59.323+0700	ERROR	instance/beat.go:971	Exiting: 2 errors: Error setting up ML for apache_ecs: 10 errors: ; ; ; ; ; ; ; ; ; ; Error setting up ML for nginx_ecs: 10 errors: ; ; ; ; ; ; ; ; ; 
