2021-05-30T23:51:41.547+0700	INFO	instance/beat.go:647	Home path: [/Users/21059315/Documents/fp-monitoring/mongoDB/metricbeat] Config path: [/Users/21059315/Documents/fp-monitoring/mongoDB/metricbeat] Data path: [/Users/21059315/Documents/fp-monitoring/mongoDB/metricbeat/data] Logs path: [/Users/21059315/Documents/fp-monitoring/mongoDB/metricbeat/logs]
2021-05-30T23:51:41.548+0700	INFO	instance/beat.go:655	Beat ID: 5b5ee71f-b7cf-4532-a74b-1b37fba6328a
2021-05-30T23:51:41.549+0700	INFO	[add_cloud_metadata]	add_cloud_metadata/add_cloud_metadata.go:89	add_cloud_metadata: hosting provider type not detected.
2021-05-30T23:51:41.570+0700	INFO	instance/beat.go:404	metricbeat stopped.
2021-05-30T23:51:41.599+0700	ERROR	instance/beat.go:958	Exiting: data path already locked by another beat. Please make sure that multiple beats are not sharing the same data path (path.data).
